[
  ["Vysočina","STOP SHOP Třebíč","Sportisimo","sportovní vybavení","lyže Rossignol",6499,5499,1000,15.4,true,"deklarovaná sleva 2991 Kč je vyšší než skutečná","IMG_2418.JPG","IMG_2417.JPG","","IMG_2818.JPG","IMG_2819.JPG","","vysocina"  ],
  ["Vysočina","STOP SHOP Třebíč","Sportisimo","sportovní vybavení","lyže Rossignol 2",5499,4999,500,9.1,true,"deklarovaná sleva 2491 Kč je vyšší než skutečná","IMG_2420.JPG","IMG_2419.JPG","","IMG_2822.JPG","IMG_2821.JPG","","vysocina"  ],
  ["Vysočina","STOP SHOP Třebíč","Sportisimo","sportovní vybavení","lyže Elan",7999,6999,1000,12.5,true,"deklarovaná sleva 4000 Kč je vyšší než skutečná","IMG_2421.JPG","IMG_2422.JPG","","IMG_2816.JPG","IMG_2817.JPG","","vysocina"  ],
  ["Vysočina","STOP SHOP Třebíč","Sportisimo","sportovní vybavení","lyžařské boty Nordica",2799,2799,0,0,true,"deklarovaná sleva 1500 Kč je vyšší než skutečná","IMG_2424.JPG","IMG_2427.JPG","","IMG_2859.JPG","IMG_2860.JPG","","vysocina"  ],
  ["Vysočina","STOP SHOP Třebíč","Sportisimo","sportovní vybavení","lyžařské boty Rossignol",3199,3199,0,0,true,"deklarovaná sleva 1800 Kč je vyšší než skutečná","IMG_2428.JPG","IMG_2429.JPG","","IMG_2854.JPG","IMG_2855.JPG","","vysocina"  ],
  ["Vysočina","STOP SHOP Třebíč","Sportisimo","sportovní vybavení","lyžařské boty Head",3999,3499,500,12.5,true,"deklarovaná sleva 1300 Kč je vyšší než skutečná","IMG_2433.JPG","IMG_2434.JPG","","IMG_2824.JPG","IMG_2826.JPG","","vysocina"  ],
  ["Vysočina","STOP SHOP Třebíč","Sportisimo","sportovní oblečení","bunda Hannah zeleno-modrá",2599,2599,0,0,true,"deklarovaná sleva 1000 Kč je vyšší než skutečná","IMG_2437.JPG","IMG_2438.JPG","","IMG_2827.JPG","IMG_2828.JPG","IMG_2829.JPG","vysocina"  ],
  ["Vysočina","STOP SHOP Třebíč","Sportisimo","sportovní oblečení","bunda Hannah šedo-modrá",2599,2599,0,0,true,"deklarovaná sleva 1000 Kč je vyšší než skutečná","IMG_2442.JPG","IMG_2443.JPG","","IMG_2830.JPG","IMG_2831_JPG","IMG_2832.JPG","vysocina"  ],
  ["Vysočina","STOP SHOP Třebíč","Sportisimo","sportovní oblečení","lyžařské kalhoty modré",2599,2599,0,0,true,"deklarovaná sleva 2400 Kč je vyšší než skutečná","IMG_2445.JPG","IMG_2446.JPG","","IMG_2863.JPG","IMG_2864.JPG","IMG_2865.JPG","vysocina"  ],
  ["Vysočina","STOP SHOP Třebíč","Sportisimo","sportovní oblečení","lyžařské kalhoty černé",2499,2499,0,0,true,"deklarovaná sleva 1100 Kč je vyšší než skutečná","IMG_2448.JPG","IMG_2449.JPG","","IMG_2835.JPG","IMG_2836.JPG","","vysocina"  ],
  ["Vysočina","STOP SHOP Třebíč","Sportisimo","sportovní oblečení","bunda TheNorthFace",3899,3899,0,0,true,"deklarovaná sleva 1700 Kč je vyšší než skutečná","IMG_2452.JPG","IMG_2455.JPG","","IMG_2843.JPG","IMG_2844.JPG","IMG_2845.JPG","vysocina"  ],
  ["Vysočina","STOP SHOP Třebíč","Sportisimo","sportovní oblečení","lyžařské kalhoty O´Neil",1499,1199,300,20,true,"deklarovaná sleva 2591 Kč je vyšší než skutečná","IMG_2457.JPG","IMG_2458.JPG","","IMG_2847.JPG","IMG_2848.JPG","IMG_2852.JPG","vysocina"  ],
  ["Vysočina","OC City Park Jihlava","New Yorker","oblečení","kabát zelený",2500,2500,0,0,false,"","20161209_173123.jpg","20161209_173055.jpg","","IMG_20161227_100935","IMG_20161227_100953","","vysocina"  ],
  ["Vysočina","OC City Park Jihlava","New Yorker","oblečení","kabát zlatý",1650,1650,0,0,false,"před Vánocemi i po nich avizované jako sleva","20161209_173216.jpg","20161209_173206.jpg","","IMG_20161227_101135","IMG_20161227_101202","","vysocina"  ],
  ["Vysočina","OC City Park Jihlava","New Yorker","oblečení","svetr s kožíškem",999,549,450,45,false,"","20161209_173649.jpg","20161209_173637.jpg","","IMG_20161227_100458","IMG_20161227_100516","","vysocina"  ],
  ["Vysočina","OC City Park Jihlava","New Yorker","oblečení","svetr růžový",699,699,0,0,false,"","20161209_173709.jpg","20161209_173656.jpg","","IMG_20161227_100157","IMG_20161227_100207","","vysocina"  ],
  ["Vysočina","OC City Park Jihlava","New Yorker","oblečení","šála černo-bílá",349,349,0,0,false,"","20161209_173756.jpg","20161209_173747.jpg","","IMG_20161227_101304","IMG_20161227_101327","","vysocina"  ],
  ["Vysočina","OD Prior Jihlava","Datart","elektronika","TV Samsung",37777,33490,4287,11.3,false,"neuvádí žádnou slevu","IMG_9627.JPG","IMG_9626.JPG","","LedSamsung.JPG","","","vysocina"  ],
  ["Vysočina","OD Prior Jihlava","Datart","elektronika","TV LG",12990,11490,1500,11.5,false,"","IMG_9629.JPG","IMG_9628.JPG","","televizeMala.JPG","","","vysocina"  ],
  ["Vysočina","OD Prior Jihlava","Datart","elektronika","lednice Goddess",5990,5990,0,0,false,"","IMG_9631.JPG","IMG_9630.JPG","","ledniceGoddess.JPG","","","vysocina"  ],
  ["Vysočina","OD Prior Jihlava","Datart","elektronika","lednice Gorenje",15990,15990,0,0,false,"","IMG_9633.JPG","IMG_9632.JPG","","ledniceGorenje.JPG","","","vysocina"  ],
  ["Vysočina","OD Prior Jihlava","Datart","elektronika","lednice Hyundai",3499,3499,0,0,false,"","IMG_9635.JPG","IMG_9634.JPG","","ledniceHyundai.JPG","","","vysocina"  ],
  ["Vysočina","OD Prior Jihlava","Datart","elektronika","TV Samsung",5190,4490,700,13.5,false,"","IMG_9637.JPG","IMG_9638.JPG","","televizeSamsung.JPG","","","vysocina"  ],
  ["Vysočina","OD Prior Jihlava","Datart","elektronika","fén Valera",1999,1999,0,0,true,"chybně uvedená původní cena (o 200 korun vyšší)","IMG_9643.JPG","IMG_9642.JPG","","fenVALERA.JPG","","","vysocina"  ],
  ["Vysočina","OD Prior Jihlava","Datart","elektronika","fén Rowenta",799,699,100,12.5,false,"","IMG_9645.JPG","IMG_9644.JPG","","fenROWENTA.JPG","","","vysocina"  ],
  ["Vysočina","OD Prior Jihlava","Datart","elektronika","remoska",2999,2999,0,0,true,"chybně uvedená původní cena (o 300 korun vyšší)","IMG_9648.JPG","IMG_9647.JPG","","remoska.JPG","","","vysocina"  ],
  ["Vysočina","OD Prior Jihlava","Datart","elektronika","pánev ETA",2699,2699,0,0,false,"","IMG_9651.JPG","IMG_9650.JPG","","viceucelovaPanev.JPG","","","vysocina"  ],
  ["Vysočina","OD Prior Jihlava","Datart","elektronika","hrnec Concept",2468,1999,469,19,false,"deklarovaná sleva 300 Kč je nižší než skutečná sleva","IMG_9653.JPG","IMG_9652.JPG","","multufunkcniHrnec.JPG","","","vysocina"  ],
  ["Zlínský","Valašské Meziřící","Sportisimo","sportovní vybavení","dětské lyžáky Nordica",2199,2199,0,0,false,"","sportissimovalmez3.JPG","sportissimo-valmez2.JPG","","po_nordica_valmez.jpg","","","zlin"  ],
  ["Zlínský","Valašské Meziřící","Sportisimo","sportovní vybavení","lyže Head",4499,4499,0,0,false,"","sportissimovalmez6.JPG","sportissimovalmez7.JPG","","po_head_valmez.jpg","","","zlin"  ],
  ["Zlínský","Valašské Meziřící","Sportisimo","sportovní vybavení","lyže Salomon",9999,9999,0,0,false,"","sportissimovalmez10.JPG","sportissimovalmez11.JPG","","po_salomon_valmez.jpg","","","zlin"  ],
  ["Zlínský","Valašské Meziřící","Sportisimo","sportovní oblečení","bunda Hannah",2499,2499,0,0,false,"","sportissimovalmez12.JPG","sportissimovalmez13.JPG","","po_hannah_valmez.JPG","","","zlin"  ],
  ["Zlínský","Valašské Meziřící","Sportisimo","sportovní oblečení","bunda Loap",1799,1799,0,0,false,"","sportissimovalmez16.JPG","sportissimovalmez17.JPG","","po_loap_valmez.JPG","","","zlin"  ],
  ["Zlínský","Valašské Meziřící","Sportisimo","sportovní vybavení","lyžáky Rosingnol",2499,2499,0,0,false,"","sportissimo-valmez.JPG","","","po_rossignol_valmez.JPG","","","zlin"  ],
  ["Zlínský","Valašské Meziřící","Gate","oblečení","kabát na stojanu",448,448,0,0,false,"","gatevalmez4.JPG","gatevalmez5.JPG","","po_kabat_bezovy_valmez.JPG","","","zlin"  ],
  ["Zlínský","Valašské Meziřící","Gate","oblečení","čepice červená",138,138,0,0,false,"","gatevalmez6.JPG","gatevalmez7.JPG","","po_cepice_cervena_valmez.JPG","","","zlin"  ],
  ["Zlínský","Valašské Meziřící","Gate","oblečení","čepice bílá",218,218,0,0,false,"","gatevalmez8.JPG","gatevalmez9.JPG","","po_cepice_bila_valmez.JPG","","","zlin"  ],
  ["Zlínský","Valašské Meziřící","Gate","oblečení","čepice černá",138,88,50,36.2,false,"","gatevalmez10.JPG","gatevalmez11.JPG","","po_cepice_cerna_valmez.JPG","","","zlin"  ],
  ["Zlínský","OC Centro Zlín","Datart","elektronika","fén Valera",1549,1799,-250,-16.1,false,"","IMG_0891.JPG","IMG_0892.JPG","","P1010194.JPG","","","zlin"  ],
  ["Zlínský","OC Centro Zlín","Datart","elektronika","fén Philips",1099,1099,0,0,false,"","IMG_0893.JPG","IMG_0894.JPG","","P1010200.JPG","","","zlin"  ],
  ["Zlínský","OC Centro Zlín","Datart","elektronika","fén Remington",941,941,0,0,false,"","IMG_0895.JPG","IMG_0896.JPG","","P1010195.JPG","","","zlin"  ],
  ["Zlínský","OC Centro Zlín","Datart","elektronika","hrnec Tefal",1999,2499,-500,-25,false,"dražší o 500 Kč než před Vánocemi","IMG_0903.JPG","IMG_0904.JPG","","P1010186.JPG","","","zlin"  ],
  ["Zlínský","OC Centro Zlín","Datart","elektronika","hrnec MR",2699,1799,900,33.3,false,"","IMG_0906.JPG","IMG_0905.JPG","","P1010183.JPG","","","zlin"  ],
  ["Zlínský","OC Centro Zlín","Datart","elektronika","hrnec Concept",2299,1999,300,13,false,"","IMG_0908.JPG","IMG_0907.JPG","","P1010185.JPG","","","zlin"  ],
  ["Zlínský","OC Centro Zlín","Datart","elektronika","lednice Samsung",54990,45990,9000,16.4,false,"","l1.JPG","l2.JPG","","P1010187.JPG","","","zlin"  ],
  ["Zlínský","OC Centro Zlín","Datart","elektronika","lednice Eta",19990,19990,0,0,false,"","l3.JPG","l4.JPG","","P1010189.JPG","","","zlin"  ],
  ["Zlínský","OC Centro Zlín","Datart","elektronika","TV Samsung",17990,15990,2000,11.1,false,"","t1.JPG","t2.JPG","","P1010197.JPG","","","zlin"  ],
  ["Zlínský","OC Centro Zlín","Datart","elektronika","TV LG",26990,19990,7000,25.9,false,"","t3.JPG","t4.JPG","","P1010178.JPG","","","zlin"  ],
  ["Zlínský","OC Centro Zlín","Datart","elektronika","TV Philips",14490,12990,1500,10.4,false,"","t5.JPG","t6.JPG","","P1010180.JPG","","","zlin"  ],
  ["Jihomoravský","Olympia Brno","Electro World","elektronika","chladnička ECG",5590,5590,0,0,false,"","IMG_2130.JPG","IMG_2131.JPG","","IMG_20161227_095249.jpg","IMG_20161227_095258.jpg","","brno"  ],
  ["Jihomoravský","Olympia Brno","Electro World","elektronika","chladnička Whirlpool",3590,3590,0,0,false,"","IMG_2132.JPG","IMG_2133.JPG","","IMG_20161227_095343.jpg","IMG_20161227_095406.jpg","","brno"  ],
  ["Jihomoravský","Olympia Brno","Electro World","elektronika","chladnička Samsung",12990,16990,-4000,-30.8,false,"sleva byla před Vánocemi, po nich zmizela","IMG_2134.JPG","IMG_2135.JPG","","IMG_20161227_095627.jpg","IMG_20161227_095673.jpg","","brno"  ],
  ["Jihomoravský","Olympia Brno","Electro World","elektronika","LED televize Sony",79990,79990,0,0,false,"","IMG_2137.JPG","IMG_2138.JPG","","IMG_20161227_095829.jpg","IMG_20161227_095838.jpg","","brno"  ],
  ["Jihomoravský","Olympia Brno","Electro World","elektronika","LED televize Samsung",14391,12490,1901,13.2,true,"uvedena jiná původní cena než byla před Vánocemi","IMG_2139.JPG","IMG_2140.JPG","","IMG_20161227_100006.jpg","IMG_20161227_100012.jpg","","brno"  ],
  ["Jihomoravský","Olympia Brno","Electro World","elektronika","LED televize Philips",16990,15990,1000,5.9,false,"","IMG_2141.JPG","IMG_2142.JPG","","IMG_20161227_100158.jpg","IMG_20161227_100211.jpg","","brno"  ],
  ["Jihomoravský","Olympia Brno","Electro World","elektronika","hol. strojek Philips",5899,6499,-600,-10.2,false,"sleva byla před Vánocemi, po nich zmizela","IMG_2148.JPG","IMG_2150.JPG","","IMG_20161227_100700.jpg","IMG_20161227_100707.jpg","","brno"  ],
  ["Jihomoravský","Avion Shopping Park","Electro World","elektronika","papiňák Tefal",5999,5999,0,0,false,"","IMG_2151.JPG","IMG_2152.JPG","","IMG_20161227_110017.jpg","IMG_20161227_110024.jpg","","brno"  ],
  ["Jihomoravský","Avion Shopping Park","Electro World","elektronika","papiňák Tefal",4999,4999,0,0,false,"","IMG_4406.JPG","IMG_4407.JPG","","IMG_5393.jpg","IMG_5394.jpg","","brno"  ],
  ["Jihomoravský","Avion Shopping Park","Electro World","elektronika","papiňák Tefal",4299,4299,0,0,false,"","IMG_4411.JPG","IMG_4412.JPG","","IMG_20161227_110029.jpg","IMG_20161227_110034.jpg","","brno"  ],
  ["Jihomoravský","Olympia Brno","Intersport","sportovní vybavení","lyže Salomon",6999,7999,-1000,-14.3,false,"o 1000 Kč dražší než před Vánocemi","IMG_2153.JPG","IMG_2154.JPG","","IMG_20161227_101936.jpg","IMG_20161227_101944.jpg","","brno"  ],
  ["Jihomoravský","Olympia Brno","Intersport","sportovní vybavení","lyže Atomic",6999,6499,500,7.1,false,"","IMG_2155.JPG","IMG_2156.JPG","","IMG_20161227_102054.jpg","IMG_20161227_102111.jpg","IMG_20161227_102135.jpg","brno"  ],
  ["Jihomoravský","Olympia Brno","Intersport","sportovní vybavení","lyže Atomic",4699,4999,-300,-6.4,false,"o 300 Kč dražší než před Vánocemi","IMG_2157.JPG","IMG_2158.JPG","","IMG_20161227_102232.jpg","IMG_20161227_102239.jpg","","brno"  ],
  ["Jihomoravský","Olympia Brno","Intersport","sportovní vybavení","lyž. boty Tecno",2399,2799,-400,-16.7,false,"o 400 Kč dražší než před Vánocemi","IMG_2159.JPG","IMG_2160.JPG","IMG_2161.JPG","IMG_20161227_102404.jpg","IMG_20161227_102409.jpg","","brno"  ],
  ["Jihomoravský","Olympia Brno","Intersport","sportovní vybavení","lyž. boty Rosignol",3099,2499,600,19.4,false,"","IMG_2162.JPG","IMG_2163.JPG","","IMG_20161227_102438.jpg","IMG_20161227_102450.jpg","","brno"  ],
  ["Jihomoravský","Olympia Brno","Intersport","sportovní vybavení","lyž. boty Salomon",3499,2999,500,14.3,false,"","IMG_2164.JPG","IMG_2165.JPG","","IMG_20161227_102624.jpg","IMG_20161227_102630.jpg","","brno"  ],
  ["Jihomoravský","Olympia Brno","Intersport","sportovní oblečení","lyž. bunda Luhta",5599,5599,0,0,false,"","IMG_4391.JPG","IMG_4392.JPG","IMG_4393.JPG","IMG_5383.jpg","IMG_5384.jpg","","brno"  ],
  ["Jihomoravský","Olympia Brno","Intersport","sportovní oblečení","lyž. bunda Fundango",4199,2999,1200,28.6,false,"","IMG_4394.JPG","IMG_4395.JPG","","IMG_5381.jpg","IMG_5382.jpg","","brno"  ],
  ["Jihomoravský","Olympia Brno","Intersport","sportovní oblečení","lyž. bunda Horsefeathers",3499,3499,0,0,false,"","IMG_4396.JPG","IMG_4397.JPG","","IMG_5378.jpg","IMG_5380.jpg","","brno"  ],
  ["Jihomoravský","Olympia Brno","Intersport","sportovní oblečení","lyž. kalhoty Firefly",2399,1799,600,25,false,"","IMG_4398.JPG","IMG_4399.JPG","","IMG_5390.jpg","IMG_5392.jpg","","brno"  ],
  ["Jihomoravský","Olympia Brno","Intersport","sportovní oblečení","lyž. kalhoty McKinley",3599,3599,0,0,false,"","IMG_4401.JPG","IMG_4402.JPG","","IMG_5388.jpg","IMG_5389.jpg","","brno"  ],
  ["Jihomoravský","Olympia Brno","Intersport","sportovní oblečení","lyž. kalhoty Icepeak",2799,2799,0,0,false,"","IMG_4403.JPG","IMG_4404.JPG","","IMG_5385.jpg","IMG_5387.jpg","","brno"  ],
  ["Jihomoravský","Olympia Brno","Reserved","oblečení","kabát červený",1299,699,600,46.2,false,"","IMG_4350.jpg","IMG_4351.jpg","","IMG_5365.jpg","IMG_5366.jpg","","brno"  ],
  ["Jihomoravský","Olympia Brno","Reserved","oblečení","kabát žlutý",1799,999,800,44.5,false,"","IMG_4352.jpg","IMG_4353.jpg","","IMG_5363.jpg","IMG_5364.jpg","","brno"  ],
  ["Jihomoravský","Olympia Brno","Reserved","oblečení","kabát černý",1999,999,1000,50,false,"","IMG_4354.jpg","IMG_4355.jpg","","IMG_5361.jpg","IMG_5362.jpg","","brno"  ],
  ["Jihomoravský","Olympia Brno","Reserved","oblečení","šála šedá",399,199,200,50.1,false,"","IMG_4356.jpg","IMG_4357.jpg","","IMG_5371.jpg","IMG_5372.jpg","","brno"  ],
  ["Jihomoravský","Olympia Brno","Reserved","oblečení","šála černá",399,249,150,37.6,false,"","IMG_4358.jpg","IMG_4359.jpg","","IMG_5369.jpg","IMG_5370.jpg","","brno"  ],
  ["Jihomoravský","Olympia Brno","Reserved","oblečení","čepice pruhovaná",249,199,50,20.1,false,"","IMG_4360.jpg","IMG_4362.jpg","","IMG_5367.jpg","IMG_5368.jpg","","brno"  ],
  ["Jihomoravský","Olympia Brno","Reserved","oblečení","svetr šedivý rolák",1299,699,600,46.2,false,"","IMG_4364.jpg","IMG_4365.jpg","","IMG_5373.jpg","IMG_5375.jpg","","brno"  ],
  ["Jihomoravský","Olympia Brno","Reserved","oblečení","svetr s motýlem",699,499,200,28.6,false,"","IMG_4370.jpg","IMG_4371.jpg","","IMG_5376.jpg","IMG_5377.jpg","","brno"  ],
  ["Olomoucký","Galerie Šantovka","Euronics","elektronika","lednice Bosh",16990,16990,0,0,false,"","IMG_0083.JPG","IMG_0084.JPG","","IMG_0563.JPG","","","olomouc"  ],
  ["Olomoucký","Galerie Šantovka","Euronics","elektronika","lednice Liebherr",15999,13997,2002,12.5,true,"chybně uvedená původní cena","IMG_0087.JPG","IMG_0086.JPG","","IMG_0566.JPG","IMG_0565.JPG","","olomouc"  ],
  ["Olomoucký","Galerie Šantovka","Euronics","elektronika","lednice Samsung",15990,15999,-9,-0.1,false,"","IMG_0089.JPG","IMG_0091.JPG","","IMG_0561.JPG","","","olomouc"  ],
  ["Olomoucký","Galerie Šantovka","Euronics","elektronika","TV Philips",11990,11990,0,0,false,"","IMG_0094.JPG","IMG_0095.JPG","","IMG_0571.JPG","","","olomouc"  ],
  ["Olomoucký","Galerie Šantovka","Euronics","elektronika","TV LG",8990,8490,500,5.6,true,"chybně uvedená původní cena","IMG_0098.JPG","IMG_0099.JPG","","IMG_0573.JPG","","","olomouc"  ],
  ["Olomoucký","Galerie Šantovka","Euronics","elektronika","TV Samsung",22990,21991,999,4.3,true,"chybně uvedená původní cena","IMG_0103.JPG","IMG_0105.JPG","","IMG_0576.JPG","","","olomouc"  ],
  ["Olomoucký","Galerie Šantovka","Euronics","elektronika","hrnec Gallet",899,899,0,0,false,"","IMG_0122.JPG","IMG_0123.JPG","","IMG_0555.JPG","IMG_0556.JPG","","olomouc"  ],
  ["Olomoucký","Galerie Šantovka","Euronics","elektronika","hrnec Eta",1299,1299,0,0,false,"","IMG_0125.JPG","IMG_0127.JPG","","IMG_0552.JPG","","","olomouc"  ],
  ["Olomoucký","Galerie Šantovka","Euronics","elektronika","hrnec Tefal",2599,2599,0,0,false,"","IMG_0128.JPG","IMG_0130.JPG","","IMG_0581.JPG","","","olomouc"  ],
  ["Olomoucký","Galerie Šantovka","Euronics","elektronika","fén Eta",499,499,0,0,true,"chybně uvedená původní cena","IMG_0135.JPG","IMG_0137.JPG","","IMG_0543.JPG","","","olomouc"  ],
  ["Olomoucký","Galerie Šantovka","Euronics","elektronika","fén Rowenta",1999,1799,200,10,true,"chybně uvedená původní cena","IMG_0138.JPG","IMG_0140.JPG","","IMG_0545.JPG","","","olomouc"  ],
  ["Olomoucký","Galerie Šantovka","Euronics","elektronika","fén Phlips",1499,1349,150,10,true,"chybně uvedená původní cena","IMG_0142.JPG","IMG_0144.JPG","","IMG_0540.JPG","","","olomouc"  ],
  ["Olomoucký","Galerie Šantovka","H&M","oblečení","svetr růžový",599,599,0,0,false,"","IMG_0056.JPG","IMG_0057.JPG","","IMG_0536.JPG","IMG_0537.JPG","","olomouc"  ],
  ["Olomoucký","Galerie Šantovka","H&M","oblečení","kabát černý",1499,750,749,50,false,"","IMG_0060.JPG","IMG_0061.JPG","","IMG_0533.JPG","IMG_0535.JPG","","olomouc"  ],
  ["Olomoucký","Galerie Šantovka","H&M","oblečení","kabát s kožíškem",1499,1499,0,0,false,"","IMG_0062.JPG","IMG_0063.JPG","","IMG_0530.JPG","IMG_0531.JPG","","olomouc"  ],
  ["Olomoucký","Galerie Šantovka","H&M","oblečení","čepice šedá",249,249,0,0,false,"","IMG_0071.JPG","IMG_0072.JPG","","IMG_0528.JPG","","","olomouc"  ],
  ["Olomoucký","Galerie Šantovka","H&M","oblečení","čepice modrá",249,70,179,71.9,false,"","IMG_0073.JPG","IMG_0075.JPG","","IMG_0527.JPG","","","olomouc"  ],
  ["Olomoucký","Galerie Šantovka","Intersport","sportovní vybavení","lyže Fischer",6999,8999,-2000,-28.6,true,"Obchod uveřejnil slevu z původní ceny lyží 12 999, ve větší slevě byl přitom set už před Vánocemi.","IMG_0151.JPG","IMG_0153.JPG","","IMG_0603.JPG","IMG_0605.JPG","","olomouc"  ],
  ["Olomoucký","Galerie Šantovka","Intersport","sportovní vybavení","lyže Salomon",11999,11999,0,0,false,"","IMG_0154.JPG","IMG_0155.JPG","","IMG_0598.JPG","IMG_0599.JPG","","olomouc"  ],
  ["Olomoucký","Galerie Šantovka","Intersport","sportovní vybavení","lyžáky Salomon",6699,6699,0,0,false,"","IMG_0166.JPG","IMG_0167.JPG","","IMG_0586.JPG","","","olomouc"  ],
  ["Olomoucký","Galerie Šantovka","Intersport","sportovní vybavení","lyžáky Nordica",4999,4999,0,0,false,"","IMG_0169.JPG","IMG_0171.JPG","","IMG_0583.JPG","","","olomouc"  ],
  ["Olomoucký","Galerie Šantovka","Intersport","sportovní vybavení","lyžáky Head",3999,5499,-1500,-37.5,false,"Zboží zdražilo, nicméně slevu dne 27.12 nedeklarovali, ve slevě byly lyžáky před Vánocemi","IMG_0172.JPG","IMG_0176.JPG","","IMG_0593.JPG","","","olomouc"  ],
  ["Olomoucký","Galerie Šantovka","Intersport","sportovní oblečení","bunda McKinley",4199,2499,1700,40.5,false,"","IMG_0187.JPG","IMG_0190.JPG","","IMG_0608.JPG","IMG_0609.JPG","","olomouc"  ],
  ["Olomoucký","Galerie Šantovka","Intersport","sportovní oblečení","lyž. kalhoty růžové Icepeak",2799,2799,0,0,false,"","IMG_0196.JPG","IMG_0198.JPG","","IMG_0612.JPG","IMG_0613.JPG","","olomouc"  ],
  ["Olomoucký","Galerie Šantovka","Intersport","sportovní oblečení","bunda Fundango",3999,2399,1600,40,false,"","IMG_0204.JPG","IMG_0206.JPG","","IMG_0615.JPG","IMG_0616.JPG","","olomouc"  ],
  ["Olomoucký","Galerie Šantovka","Intersport","sportovní oblečení","lyž. kalhoty červené Fundango",2699,1599,1100,40.8,false,"","IMG_0209.JPG","IMG_0211.JPG","","IMG_0619.JPG","IMG_0620.JPG","","olomouc"  ],
  ["Olomoucký","Galerie Šantovka","Intersport","sportovní oblečení","bunda Wolfskin",5499,5499,0,0,false,"","IMG_0213.JPG","IMG_0217.JPG","","IMG_0624.JPG","IMG_0625.JPG","","olomouc"  ],
  ["Pardubický","Palackého třída","Electro World","elektronika","lednice Whirpool",8990,8990,0,0,false,"","29-lednice-typ-a-01.JPG","30-lednice-typ-a-02.JPG","","IMG_6613.JPG","IMG_6616.JPG","","pardubice"  ],
  ["Pardubický","Palackého třída","Electro World","elektronika","lednice Liebherr",11999,11999,0,0,false,"","31-lednice-typ-b-01.JPG","32-lednice-typ-b-02.JPG","","IMG_6607.JPG","IMG_6609.JPG","","pardubice"  ],
  ["Pardubický","Palackého třída","Electro World","elektronika","TV LG",13990,13990,0,0,false,"","33-tv-typ-a-01.JPG","34-tv-typ-a-02.JPG","","IMG_6621.JPG","IMG_6620.JPG","","pardubice"  ],
  ["Pardubický","Palackého třída","Electro World","elektronika","TV Samsung",13490,9990,3500,25.9,true,"Původní cena byla nižší, než prodejce ve výprodeji uvádí","35-tv-typ-b-01.JPG","36-tv-typ-b-02.JPG","","IMG_6618.JPG","IMG_6619.JPG","","pardubice"  ],
  ["Pardubický","Palackého třída","Electro World","elektronika","holicí strojek Braun",1899,1899,0,0,false,"","37-strojek-01.JPG","","","IMG_6605.JPG","","","pardubice"  ],
  ["Pardubický","Palackého třída","Electro World","elektronika","holicí strojek Braun černý",1899,1899,0,0,false,"","38-strojek-02.JPG","39-strojek-03.JPG","","IMG_6603.JPG","IMG_6604.JPG","","pardubice"  ],
  ["Pardubický","Atrium Palace Pardubice","Intersport","sportovní vybavení","lyžáky Atomic",5499,5499,0,0,false,"","01-boty-lyze-typ-a-01.jpg","02-boty-lyze-typ-a-02.JPG","","IMG_6668.JPG","IMG_6676.JPG","","pardubice"  ],
  ["Pardubický","Atrium Palace Pardubice","Intersport","sportovní vybavení","lyžáky Nordica",13899,13899,0,0,false,"","03-boty-lyze-typ-b-01.jpg","04-boty-lyze-typ-b-02.JPG","","IMG_6670.JPG","IMG_6673.JPG","","pardubice"  ],
  ["Pardubický","Atrium Palace Pardubice","Intersport","sportovní vybavení","lyže Atomic",9999,9999,0,0,false,"","06-lyze-typ-a-01.JPG","","","IMG_6658.JPG","","","pardubice"  ],
  ["Pardubický","Atrium Palace Pardubice","New Yorker","oblečení","kabát černý",1400,1400,0,0,false,"","19-kabat-typ-b-01.jpg","20-kabat-typ-b-02.jpg","","IMG_6649.JPG","IMG_6650.JPG","","pardubice"  ],
  ["Pardubický","Atrium Palace Pardubice","New Yorker","oblečení","svetr šedivý",549,399,150,27.3,false,"","21-svetr-typ-a-01.JPG","22-svetr-typ-a-02.JPG","","IMG_6647.JPG","IMG_6646.JPG","","pardubice"  ],
  ["Pardubický","Atrium Palace Pardubice","New Yorker","oblečení","svetr černo-bílý",549,399,150,27.3,false,"","23-svetr-typ-b-01.JPG","24-svetr-typ-b-02.JPG","","IMG_6641.JPG","IMG_6644.JPG","","pardubice"  ],
  ["Pardubický","Atrium Palace Pardubice","New Yorker","oblečení","šála bílá",399,399,0,0,false,"","27-sala-typ-b-01.jpg","28-sala-typ-b-02.jpg","","IMG_6652.JPG","IMG_6655.JPG","","pardubice"  ],
  ["Pardubický","Poděbradská ulice - Pardubice","Sportisimo","sportovní vybavení","lyže Elan",7999,6999,1000,12.5,false,"","07-lyze-typ-b-01.JPG","08-lyze-typ-b-02.JPG","","IMG_4424.JPG","IMG_6622.JPG","","pardubice"  ],
  ["Pardubický","Poděbradská ulice - Pardubice","Sportisimo","sportovní oblečení","bunda Head",3999,3999,0,0,false,"","09-lyze-bunda-typ-a-01.JPG","10-lyze-bunda-typ-a-02.JPG","","IMG_6626.JPG","IMG_6628.JPG","","pardubice"  ],
  ["Pardubický","Poděbradská ulice - Pardubice","Sportisimo","sportovní oblečení","lyž. kalhoty Loap",1399,1399,0,0,false,"","13-lyze-kalhoty-typ-a-01.JPG","14-lyze-kalhoty-typ-a-02.JPG","","IMG_6635.JPG","IMG_6638.JPG","","pardubice"  ],
  ["Pardubický","Poděbradská ulice - Pardubice","Sportisimo","sportovní oblečení","lyž. kalhoty Loap 2",1399,1199,200,14.3,false,"","15-lyze-kalhoty-typ-b-01.JPG","16-lyze-kalhoty-typ-b-02.JPG","","IMG_6632.JPG","IMG_6633.JPG","","pardubice"  ],
  ["Královéhradecký","OD Futurum HK","Electro World","elektronika","fén Imetec",799,799,0,0,false,"","fenimetec2.jpg","fenimetec1.jpg","fenimetec4.jpg","po_fenimetec.JPG","","","hradec"  ],
  ["Královéhradecký","OD Futurum HK","Electro World","elektronika","fén Remington",1799,1799,0,0,false,"","fenremington3.jpg","fenremington2.jpg","fenremington4.jpg","po_fenremington.JPG","","","hradec"  ],
  ["Královéhradecký","OD Futurum HK","Electro World","elektronika","fén Rowenta",1999,1999,0,0,false,"","fenrowenta2.jpg","fenrowenta3.jpg","fenrowenta4.jpg","po_fenrowenta.JPG","","","hradec"  ],
  ["Královéhradecký","OD Futurum HK","Electro World","elektronika","lednice Amica",5490,5490,0,0,false,"","ledniceamica1.jpg","ledniceamica2.jpg","ledniceamica3.jpg","po_ledniceamica.JPG","","","hradec"  ],
  ["Královéhradecký","OD Futurum HK","Electro World","elektronika","lednice Gorenje",15990,15990,0,0,false,"","lednicegorenje1.jpg","lednicegorenje4.jpg","lednicegorenje2.jpg","po_ledicegorenie.JPG","","","hradec"  ],
  ["Královéhradecký","OD Futurum HK","Electro World","elektronika","lednice Liebherr",10499,10499,0,0,false,"","ledniceliebherr1.jpg","ledniceliebherr3.jpg","ledniceliebherr4.jpg","po_ledniceliebherr.JPG","","","hradec"  ],
  ["Královéhradecký","OD Futurum HK","Electro World","elektronika","TV LG",7990,7430,560,7,true,"původni cena označená o 9 kč vyšší","televizelg1.jpg","televizelg2.jpg","televizelg3.jpg","po_televizelg.JPG","","","hradec"  ],
  ["Královéhradecký","OD Futurum HK","Electro World","elektronika","TV Samsung",39990,39990,0,0,false,"","televizesamsung1.jpg","televizesamsung2.jpg","televizesamsung3.jpg","po_televizesamsung.JPG","","","hradec"  ],
  ["Královéhradecký","OD Futurum HK","H&M","oblečení","čepice bílá",299,299,0,0,false,"","cepice1.jpg","cepice2.jpg","cepice3.jpg","po_cepice1.JPG","po_cepice2.JPG","","hradec"  ],
  ["Královéhradecký","OD Futurum HK","H&M","oblečení","kabát šedivý",1499,1499,0,0,false,"","kabatzimni1.jpg","kabatzimni2.jpg","kabatzimni3.jpg","po_kabatzinmi.JPG","","","hradec"  ],
  ["Královéhradecký","OD Futurum HK","H&M","oblečení","šála",399,399,0,0,false,"","sala_uplet1.jpg","sala_uplet2.jpg","sala_uplet3.jpg","po_salauplet.JPG","","","hradec"  ],
  ["Královéhradecký","OD Futurum HK","H&M","oblečení","šála kostka",499,200,299,59.9,false,"","sala1.jpg","sala2.jpg","sala3.jpg","po_sala1.JPG","po_sala2.JPG","","hradec"  ],
  ["Královéhradecký","OD Futurum HK","H&M","oblečení","svetr s tygrem",599,300,299,49.9,false,"","svetr_motiv1.jpg","svetr_motiv2.jpg","svetr_motiv3.jpg","po_svetrmotiv1.JPG","","","hradec"  ],
  ["Královéhradecký","OD Futurum HK","H&M","oblečení","bunda černá",1499,1499,0,0,false,"","zimnibunda_cerna2.jpg","zimnibunda_cerna3.jpg","zimnibunda_cerna4.jpg","po_bundazimni1.JPG","po_bundazimni2.JPG","","hradec"  ],
  ["Královéhradecký","OD Futurum HK","Intersport","sportovní vybavení","běžkařské boty Salomon",2799,1999,800,28.6,false,"","bezkarske_boty1.jpg","bezkarske_boty2.jpg","bezkarske_boty3.jpg","po_bezkarskeboty.JPG","","","hradec"  ],
  ["Královéhradecký","OD Futurum HK","Intersport","sportovní vybavení","běžky Salomon",2799,2499,300,10.7,false,"","bezky2.jpg","bezky3.jpg","bezky1.jpg","po_bezky.JPG","","","hradec"  ],
  ["Královéhradecký","OD Futurum HK","Intersport","sportovní vybavení","lyž. brýle Bollé",1099,1099,0,0,false,"","bryle4.jpg","bryle2.jpg","bryle1.jpg","po_bryle.JPG","","","hradec"  ],
  ["Královéhradecký","OD Futurum HK","Intersport","sportovní vybavení","bunda McKinnley",4199,4199,0,0,false,"","bundamckinley2.jpg","bundamckinley3.jpg","bundamckinley4.jpg","po_bundamckinley1.JPG","po_bundamckinley2.JPG","","hradec"  ],
  ["Královéhradecký","OD Futurum HK","Intersport","sportovní vybavení","helma Bollé",2999,2999,0,0,false,"","helma1.jpg","helma2.jpg","helma3.jpg","po_helma.JPG","","","hradec"  ],
  ["Královéhradecký","OD Futurum HK","Intersport","sportovní vybavení","lyžáky Nordica",13499,13899,-400,-3,false,"","lyzaky1.jpg","lyzaky3.jpg","lyzaky4.jpg","po_lyzaky.JPG","","","hradec"  ],
  ["Královéhradecký","OD Futurum HK","Intersport","sportovní vybavení","lyžařské kalhoty CMP",2799,2799,0,0,false,"","lyzarske_kalhoty1.jpg","lyzarske_kalhoty3.jpg","lyzarske_kalhoty4.jpg","po_lyzarskekalhoty1.JPG","po_lyzarskekalhoty2.JPG","","hradec"  ],
  ["Královéhradecký","OD Futurum HK","Intersport","sportovní vybavení","lyže Atomic",11999,11999,0,0,false,"","lyze_atomic1.jpg","lyze_atomic2.jpg","lyze_atomic4.jpg","po_lyzeatomic1.JPG","po_lyzeatomic2.JPG","","hradec"  ],
  ["Královéhradecký","OD Futurum HK","Intersport","sportovní vybavení","lyže Rossingnol",6499,6499,0,0,false,"","lyze_rossignol1.jpg","lyze_rossignol2.jpg","lyze_rossignol4.jpg","po_lyzeros.JPG","","","hradec"  ],
  ["Moravskoslezský","Avion Shopping Park","Sportisimo","sportovní oblečení","bunda Tetragon Columbia",3499,2999,500,14.3,false,"","Sportisimo-bundy-columbia-foto1.jpg","Sportisimo-bundy-columbia-foto2.jpg","Sportisimo-bundy-columbia-foto3.jpg","sportisimo-bundy-columbia-po","","","ostrava"  ],
  ["Moravskoslezský","Avion Shopping Park","Sportisimo","sportovní oblečení","bunda Tocsk North Face",3899,3899,0,0,false,"","Sportisimo-bundy-north-face-foto1.jpg","Sportisimo-bundy-north-face-foto2.jpg","Sportisimo-bundy-north-face-foto3.jpg","sportisimo-bundy-north-po","","","ostrava"  ],
  ["Moravskoslezský","Avion Shopping Park","Sportisimo","sportovní oblečení","bunda Icestorm Salomon",4499,4499,0,0,false,"","Sportisimo-bundy-salomon-foto1.jpg","Sportisimo-bundy-salomon-foto2.jpg","Sportisimo-bundy-salomon-foto3.jpg","sportisimo-bundy-salomon-po","","","ostrava"  ],
  ["Moravskoslezský","Avion Shopping Park","Sportisimo","sportovní oblečení","kalhoty Tocsk North Face",2499,2499,0,0,false,"","Sportisimo-kalhoty-north-face-foto1.jpg","Sportisimo-kalhoty-north-face-foto2.jpg","","sportisimo-kalhoty-north-po","","","ostrava"  ],
  ["Moravskoslezský","Avion Shopping Park","Sportisimo","sportovní vybavení","lyžáky Fischer Viron",5499,4499,1000,18.2,false,"","Sportisimo-lyzaky-fischer-foto1.jpg","Sportisimo-lyzaky-fischer-foto2.jpg","Sportisimo-lyzaky-fischer-foto3.jpg","sportisimo-lyzaky-fischer-po","","","ostrava"  ],
  ["Moravskoslezský","Avion Shopping Park","Sportisimo","sportovní vybavení","lyžáky Nordica NRGY PRO 3",5999,4999,1000,16.7,false,"","Sportisimo-lyzaky-nordica-foto1.jpg","Sportisimo-lyzaky-nordica-foto2.jpg","Sportisimo-lyzaky-nordica-foto3.jpg","sportisimo-lyzaky-nordica-po","","","ostrava"  ],
  ["Moravskoslezský","Avion Shopping Park","Sportisimo","sportovní vybavení","lyžáky Tecnica TEN.2 ZX",3499,2999,500,14.3,false,"","Sportisimo-lyzaky-technica-foto1.jpg","Sportisimo-lyzaky-technica-foto2.jpg","Sportisimo-lyzaky-technica-foto3.jpg","sportisimo-lyzaky-tecnica-po","","","ostrava"  ],
  ["Moravskoslezský","Avion Shopping Park","Sportisimo","sportovní vybavení","lyže Atomic Redster LT",8999,7499,1500,16.7,false,"","Sportisimo-lyze-atomic-foto1.jpg","Sportisimo-lyze-atomic-foto2.jpg","Sportisimo-lyze-atomic-foto3.jpg","sportisimo-lyze-atomic-po","","","ostrava"  ],
  ["Moravskoslezský","Avion Shopping Park","Sportisimo","sportovní vybavení","lyže Salomon X-Drive 8.0",8999,7999,1000,11.1,false,"","Sportisimo-lyze-salomon-foto1.jpg","Sportisimo-lyze-salomon-foto2.jpg","Sportisimo-lyze-salomon-foto3.jpg","sportisimo-lyze-salomon-po","","","ostrava"  ],
  ["Moravskoslezský","Avion Shopping Park","Datart","elektronika","holicí strojek Braun",4470,4499,-29,-0.6,false,"cena vyšší o 29 kč, deklarován \"maxi výprodej až 70 %\"","Datart-holici-strojky.jpg","Datart-holici-strojky-braun-foto2.jpg","","datart-hol-braun-po","","","ostrava"  ],
  ["Moravskoslezský","Avion Shopping Park","Datart","elektronika","holicí strojek Philips",6499,6499,0,0,false,"","Datart-holici strojky-phillips-nejdrazsi-foto1.jpg","Datart-holici-strojky-phillips-nejdrazsi-foto2.jpg","","datart-hol-philips-po","","","ostrava"  ],
  ["Moravskoslezský","Avion Shopping Park","Datart","elektronika","holicí strojek Philips 2",3999,3999,0,0,false,"","Datart-holici-strojky-phillips-nejprodavanejsi-foto1.jpg","Datart-holici-strojky-phillips-nejprodavanejsi-foto2.jpg","","datart-hol-philips-nejpr-po","","","ostrava"  ],
  ["Moravskoslezský","Avion Shopping Park","Datart","elektronika","lednice Electrolux",9990,9990,0,0,false,"","Datart-lednice-electrolux-foto1.jpg","Datart-lednice-electrolux-foto2.jpg","Datart-lednice-electrolux-foto3.jpg","datart-lednice-electrolux-po","","","ostrava"  ],
  ["Moravskoslezský","Avion Shopping Park","Datart","elektronika","lednice LG",15990,12990,3000,18.8,false,"","Datart-lednice-lg-foto1.jpg","Datart-lednice-lg-foto2.jpg","Datart-lednice-lg-foto3.jpg","datart-lednice-lg-po","","","ostrava"  ],
  ["Moravskoslezský","Avion Shopping Park","Datart","elektronika","lednice Samsung",12490,9990,2500,20,false,"","Datart-lednice-samsung-foto1.jpg","Datart-lednice-samsung-foto2.jpg","Datart-lednice-samsung-foto3.jpg","datart-lednice-samsung-po","","","ostrava"  ],
  ["Moravskoslezský","Avion Shopping Park","Datart","elektronika","TV LG",12990,11990,1000,7.7,false,"","Datart-televize-lg-foto1.jpg","Datart-televize-lg-foto2.jpg","","datart-televize-lg-po","","","ostrava"  ],
  ["Moravskoslezský","Avion Shopping Park","Datart","elektronika","TV Samsung",17990,15990,2000,11.1,false,"","Datart-televize-samsung-foto1.jpg","Datart-televize-samsung-foto2.jpg","","datart-televize-samsung-po","","","ostrava"  ],
  ["Moravskoslezský","Avion Shopping Park","H&M","oblečení","čepice šedivá",249,249,0,0,false,"","HM-cepice-vlnena-foto1.jpg","HM-cepice-vlnena-foto2.jpg","","hm-cepice-vlnena-po","","","ostrava"  ],
  ["Moravskoslezský","Avion Shopping Park","H&M","oblečení","čepice s kšiltem",349,349,0,0,false,"","HM-cepice-zimniksilt-foto1.jpg","HM-cepice-zimniksilt-foto2.jpg","","hm-cepice-zimniksilt-po","","","ostrava"  ],
  ["Moravskoslezský","Avion Shopping Park","H&M","oblečení","kabát černý",2999,2999,0,0,false,"","HM-kabaty-cerny-foto1.jpg","HM-kabaty-cerny-foto2.jpg","","hm-kabaty-cerny-po","","","ostrava"  ],
  ["Moravskoslezský","Avion Shopping Park","H&M","oblečení","kabát s kožešinovým límcem",1499,1499,0,0,false,"","HM-kabaty-skozes-foto1.jpg","HM-kabaty-skozes-foto2.jpg","","hm-kabaty-kozes-po","","","ostrava"  ],
  ["Moravskoslezský","Avion Shopping Park","H&M","oblečení","svetr modrý",599,599,0,0,false,"","HM-svetry-modry-foto1.jpg","HM-svetry-modry-foto3.jpg","","hm-svetry-modry-po","","","ostrava"  ],
  ["Moravskoslezský","Avion Shopping Park","H&M","oblečení","svetr s knoflíky",899,899,0,0,false,"","HM-svetry-sedy-foto1.jpg","HM-svetry-sedy-foto2.jpg","","hm-svetry-sedy-po","","","ostrava"  ],
  ["Liberecký","OC Fórum Liberec","Datart","elektronika","fén Remington",941,999,-58,-6.2,false,"o 58 korun dražší","20161209_162208.jpg","20161209_162213.jpg","","20161227_093453.jpg","20161227_093456.jpg","20161227_093541.jpg","liberec"  ],
  ["Liberecký","OC Fórum Liberec","Datart","elektronika","fén Valera",999,999,0,0,false,"","20161209_162219.jpg","20161209_162222.jpg","","20161227_093503.jpg","20161227_093506.jpg","","liberec"  ],
  ["Liberecký","OC Fórum Liberec","Datart","elektronika","fén Braun",1299,999,300,23.1,false,"","20161209_162229.jpg","20161209_162232.jpg","20161209_162239.jpg","20161227_093514.jpg","20161227_093517.jpg","20161227_093525.jpg","liberec"  ],
  ["Liberecký","OC Fórum Liberec","Datart","elektronika","TV Samsung",92990,87990,5000,5.4,false,"","20161209_162322.jpg","20161209_162322.jpg","","20161227_093924.jpg","20161227_093929.jpg","","liberec"  ],
  ["Liberecký","OC Fórum Liberec","Datart","elektronika","TV Samsung 2",29990,27990,2000,6.7,false,"","20161209_162407.jpg","20161209_162354.jpg","","20161227_093936.jpg","20161227_093943.jpg","","liberec"  ],
  ["Liberecký","OC Fórum Liberec","Datart","elektronika","lednice LG",19490,17990,1500,7.7,false,"","20161209_162514.jpg","20161209_162518.jpg","","20161227_093829.jpg","20161227_093834.jpg","","liberec"  ],
  ["Liberecký","OC Fórum Liberec","Datart","elektronika","lednice Liebherr",17999,17990,9,0.1,false,"","20161209_162526.jpg","20161209_162531.jpg","","20161227_093814.jpg","20161227_093817.jpg","","liberec"  ],
  ["Liberecký","OC Fórum Liberec","Datart","elektronika","lednice Samsung",15990,15990,0,0,false,"","20161209_162539.jpg","20161209_162544.jpg","20161209_162558.jpg","20161227_093848.jpg","20161227_093853.jpg","","liberec"  ],
  ["Liberecký","OC Fórum Liberec","Datart","elektronika","hrnec Concept",2468,1999,469,19,false,"","20161209_162707.jpg","20161209_162711.jpg","20161209_162759.jpg","20161227_093604.jpg","20161227_093608.jpg","","liberec"  ],
  ["Liberecký","OC Fórum Liberec","Datart","elektronika","hrnec Tefal",1999,2499,-500,-25,false,"","20161209_162715.jpg","20161209_162719.jpg","","20161227_093613.jpg","20161227_093615.jpg","","liberec"  ],
  ["Liberecký","OC Fórum Liberec","Datart","elektronika","rýžovar Sencor",699,699,0,0,true,"chybně uveděná původní cena 799 Kč","20161209_162740.jpg","20161209_162744.jpg","","20161227_093627.jpg","20161227_093631.jpg","","liberec"  ],
  ["Liberecký","OC Fórum Liberec","Reserved","oblečení","kabát černý s límcem",1999,999,1000,50,false,"","20161209_101817.jpg","20161209_101847.jpg","","20161227_092408.jpg","20161227_092413.jpg","20161227_092419.jpg","liberec"  ],
  ["Liberecký","OC Fórum Liberec","Reserved","oblečení","kábát péřový",1999,999,1000,50,false,"","20161209_101946.jpg","20161209_102007.jpg","","20161227_092801.jpg","20161227_092805.jpg","20161227_092757.jpg","liberec"  ],
  ["Liberecký","OC Fórum Liberec","Reserved","oblečení","šála černá",399,249,150,37.6,false,"","20161209_102138.jpg","20161209_102144.jpg","","20161227_093154.jpg","20161227_093149.jpg","20161227_093136.jpg","liberec"  ],
  ["Liberecký","OC Fórum Liberec","Reserved","oblečení","šála bílá",249,149,100,40.2,false,"","20161209_102159.jpg","20161209_102207.jpg","","20161227_093211.jpg","20161227_093213.jpg","","liberec"  ],
  ["Liberecký","OC Fórum Liberec","Reserved","oblečení","svetr bílý",599,399,200,33.4,false,"","20161209_103045.jpg","20161209_103052.jpg","","20161227_093039.jpg","20161227_093048.jpg","20161227_093120.jpg","liberec"  ],
  ["Liberecký","OC Nisa Liberec","Intersport","sportovní oblečení","bunda AlpinePro",2199,2199,0,0,false,"","20161209_124130.jpg","20161209_124138.jpg","20161209_124147.jpg","20161227_095611.jpg","20161227_095616.jpg","","liberec"  ],
  ["Liberecký","OC Nisa Liberec","Intersport","sportovní oblečení","bunda Columbia",3899,3999,-100,-2.6,true,"chybně uvedená původní cena 5499 Kč","20161209_124212.jpg","20161209_124220.jpg","20161209_124229.jpg","20161227_095653.jpg","20161227_095704.jpg","","liberec"  ],
  ["Liberecký","OC Nisa Liberec","Intersport","sportovní oblečení","bunda Wolfskin",5499,3299,2200,40,false,"","20161209_124247.jpg","20161209_124254.jpg","20161209_124308.jpg","20161227_100658.jpg","20161227_100703.jpg","20161227_100713.jpg","liberec"  ],
  ["Liberecký","OC Nisa Liberec","Intersport","sportovní vybavení","lyžáky Rossingnol",3099,2499,600,19.4,false,"","20161209_124618.jpg","20161209_124621.jpg","","20161227_100251.jpg","20161227_100256.jpg","","liberec"  ],
  ["Liberecký","OC Nisa Liberec","Intersport","sportovní vybavení","lyžáky Salomon",4999,4999,0,0,true,"chybně uvedená původní cena 6999 Kč","20161209_124652.jpg","20161209_124702.jpg","20161209_124715.jpg","20161227_100329.jpg","20161227_100326.jpg","","liberec"  ],
  ["Liberecký","OC Nisa Liberec","Intersport","sportovní vybavení","lyže Tecnopro",8599,4699,3900,45.4,false,"","20161209_124818.jpg","20161209_124813.jpg","20161209_124839.jpg","20161227_095929.jpg","20161227_095933.jpg","","liberec"  ],
  ["Liberecký","OC Nisa Liberec","Intersport","sportovní vybavení","běžky Fischer",3399,3399,0,0,false,"","20161209_124856.jpg","20161209_124902.jpg","20161209_124915.jpg","20161227_095952.jpg","20161227_095956.jpg","20161227_095949.jpg","liberec"  ],
  ["Liberecký","OC Nisa Liberec","Intersport","sportovní vybavení","běžky Salomon",2799,2499,300,10.7,false,"","20161209_124925.jpg","20161209_124929.jpg","20161209_124936.jpg","20161227_100020.jpg","20161227_100530.jpg","","liberec"  ],
  ["Ústecký","Pivovar Děčín","Euronics","elektronika","lednice Beko",6990,6990,0,0,false,"","IMG_2970.JPG","IMG_2971.JPG","","IMG_3394.JPG","IMG_3395.JPG","","usti"  ],
  ["Ústecký","Pivovar Děčín","Euronics","elektronika","lednice Eta",13990,12990,1000,7.1,false,"","IMG_2972.JPG","IMG_2973.JPG","","IMG_3396.JPG","IMG_3397.JPG","","usti"  ],
  ["Ústecký","Pivovar Děčín","Euronics","elektronika","televize LG",13990,12990,1000,7.1,false,"","IMG_2976.JPG","IMG_2977.JPG","","IMG_3398.JPG","IMG_3399.JPG","","usti"  ],
  ["Ústecký","Pivovar Děčín","Euronics","elektronika","televize Philips",28990,26990,2000,6.9,false,"","IMG_2978.JPG","IMG_2979.JPG","","IMG_3400.JPG","IMG_3401.JPG","","usti"  ],
  ["Ústecký","Pivovar Děčín","Euronics","elektronika","televize Samsung",37777,34989,2788,7.4,false,"","IMG_2980.JPG","IMG_2981.JPG","","IMG_3402.JPG","IMG_3403.JPG","","usti"  ],
  ["Ústecký","Pivovar Děčín","Euronics","elektronika","holící strojek Braun",2799,1799,1000,35.7,false,"","IMG_2982.JPG","IMG_2983.JPG","","IMG_3404.JPG","IMG_3406.JPG","","usti"  ],
  ["Ústecký","Pivovar Děčín","Euronics","elektronika","holící strojek Philips",2499,2499,0,0,false,"","IMG_2984.JPG","IMG_2986.JPG","","IMG_3407.JPG","IMG_3408.JPG","","usti"  ],
  ["Ústecký","Pivovar Děčín","Euronics","elektronika","holící strojek Braun series",11990,11990,0,0,false,"","IMG_2987.JPG","IMG_2989.JPG","","IMG_3409.JPG","IMG_3410.JPG","","usti"  ],
  ["Ústecký","Pivovar Děčín","Hervis","oblečení","D.kalhoty Faye",2299,1799,500,21.7,false,"","IMG_2990.JPG","IMG_2991.JPG","","IMG_3414.JPG","IMG_3415.JPG","","usti"  ],
  ["Ústecký","Pivovar Děčín","Hervis","oblečení","D.kalhoty Amina",3299,3299,0,0,true,"uměle zvýšená cena","IMG_2992.JPG","IMG_2993.JPG","","IMG_3416.JPG","IMG_3417.JPG","","usti"  ],
  ["Ústecký","Pivovar Děčín","Hervis","oblečení","D.kalhoty Josie",2499,2400,99,4,false,"","IMG_2994.JPG","IMG_2995.JPG","","IMG_3418.JPG","IMG_3419.JPG","","usti"  ],
  ["Ústecký","Pivovar Děčín","Hervis","oblečení","D.bunda Jill",3999,3900,99,2.5,false,"","IMG_2996.JPG","IMG_2997.JPG","","IMG_3420.JPG","IMG_3421.JPG","","usti"  ],
  ["Ústecký","Pivovar Děčín","Hervis","oblečení","D.bunda Golda",4199,4199,0,0,true,"uměle zvýšená cena","IMG_2998.JPG","IMG_2999.JPG","","IMG_3422.JPG","IMG_3423.JPG","","usti"  ],
  ["Ústecký","Pivovar Děčín","Hervis","oblečení","D. bunda Katrina",3199,3199,0,0,true,"uměle zvýšená cena","IMG_3001.JPG","IMG_3002.JPG","","IMG_3424.JPG","IMG_3425.JPG","","usti"  ],
  ["Ústecký","Pivovar Děčín","H&M","oblečení","svetr Koko",599,599,0,0,false,"","IMG_3003.JPG","IMG_3004.JPG","","IMG_3432.JPG","IMG_3433.JPG","","usti"  ],
  ["Ústecký","Pivovar Děčín","H&M","oblečení","svetr Koko dlouhy",599,599,0,0,false,"","IMG_3014.JPG","IMG_3015.JPG","","IMG_3430.JPG","IMG_3431.JPG","","usti"  ],
  ["Ústecký","Pivovar Děčín","H&M","oblečení","svetr Koko s růžovou",349,349,0,0,false,"","IMG_3017.JPG","IMG_3018.JPG","","IMG_3428.JPG","IMG_3429.JPG","","usti"  ],
  ["Ústecký","Pivovar Děčín","H&M","oblečení","čepice šedá bambule",299,299,0,0,false,"stejné zboží, jiná barva","IMG_3005.JPG","IMG_3006.JPG","","IMG_3426.JPG","IMG_3427.JPG","","usti"  ],
  ["Ústecký","Pivovar Děčín","H&M","oblečení","kabát alá sako",2999,2999,0,0,false,"","IMG_3019.JPG","IMG_3020.JPG","","IMG_3436.JPG","IMG_3437.JPG","","usti"  ],
  ["Ústecký","Ústí nad Labem","Sportisimo","sportovní vybavení","lyžáky Head carve",2999,2999,0,0,true,"uměle zvýšená cena","IMG_3028.JPG","","","IMG_3443.JPG","IMG_3442.JPG","","usti"  ],
  ["Ústecký","Ústí nad Labem","Sportisimo","sportovní vybavení","lyžáky Rossignol Ciara",3199,3199,0,0,false,"","IMG_3029.JPG","","","IMG_3441.JPG","","","usti"  ],
  ["Ústecký","Ústí nad Labem","Sportisimo","sportovní vybavení","lyžáky Rossignol Alias",3999,3999,0,0,true,"uměle zvýšená cena","IMG_3030.JPG","","","IMG_3440.JPG","IMG_3439.JPG","","usti"  ],
  ["Ústecký","Ústí nad Labem","Sportisimo","sportovní vybavení","lyže Rossignol V-Viper",5499,4999,500,9.1,true,"uměle zvýšená cena","IMG_3031.JPG","IMG_3032.JPG","","IMG_3444.JPG","IMG_3445.JPG","","usti"  ],
  ["Ústecký","Ústí nad Labem","Sportisimo","sportovní vybavení","lyže Atomic Performer Bend-X",4999,4999,0,0,true,"uměle zvýšená cena","IMG_3033.JPG","IMG_3034.JPG","","IMG_3446.JPG","IMG_3447.JPG","","usti"  ],
  ["Ústecký","Ústí nad Labem","Sportisimo","sportovní vybavení","lyže Elan E-flex S plate",5499,5499,0,0,true,"uměle zvýšená cena","IMG_3035.JPG","IMG_3036.JPG","","IMG_3448.JPG","IMG_3449.JPG","","usti"  ],
  ["Ústecký","Ústí nad Labem","Sportisimo","sportovní vybavení","lyže Elan Race pro sport",2899,2899,0,0,false,"","IMG_3037.JPG","IMG_3038.JPG","","IMG_3450.JPG","IMG_3451.JPG","","usti"  ],
  ["Karlovarský","OC Fontána","C&A","oblečení","kabát růžový",2298,2298,0,0,false,"","20161211_164122.jpg","20161211_164134.jpg","","20161227_114916.jpg","20161227_114926.jpg","","vary"  ],
  ["Karlovarský","OC Fontána","C&A","oblečení","bunda černá",1798,1798,0,0,false,"","20161211_164109.jpg","20161211_164117.jpg","","20161227_114945.jpg","20161227_114950.jpg","","vary"  ],
  ["Karlovarský","OC Fontána","Sportisimo","sportovní vybavení","lyžařská přilba",999,999,0,0,false,"","20161211_161511.jpg","20161211_161515.jpg","","20161227_112111.jpg","20161227_161511.jpg","","vary"  ],
  ["Karlovarský","OC Fontána","Sportisimo","sportovní vybavení","běžky",2790,1999,791,28.4,false,"","20161211_161631.jpg","20161211_161626.jpg","","20161227_111724.jpg","20161227_111901.jpg","","vary"  ],
  ["Karlovarský","OC Fontána","Sportisimo","sportovní vybavení","lyžáky",1799,1799,0,0,false,"","20161211_161853.jpg","20161211_161910.jpg","","20161227_111953.jpg","","","vary"  ],
  ["Karlovarský","OC Fontána","Sportisimo","oblečení","bunda černá",1599,1599,0,0,false,"je ve výprodeji, ale cena zůstala původní","20161211_162135.jpg","20161211_162204.jpg","","20161227_113050.jpg","20161227_113053.jpg","","vary"  ],
  ["Karlovarský","OC Fontána","Sport Direct","sportovní vybavení","lyže",8749,8749,0,0,false,"","20161211_162947.jpg","20161211_163032.jpg","","20161227_113958.jpg","20161227_114002.jpg","","vary"  ],
  ["Karlovarský","OC Fontána","Sport Direct","sportovní vybavení","kalhoty modré",2119,2119,0,0,false,"","20161211_163441.jpg","20161211_163452.jpg","","20161227_114321.jpg","20161227_114324.jpg","","vary"  ],
  ["Karlovarský","OC Fontána","Sport Direct","sportovní vybavení","kalhoty černé",1249,1249,0,0,false,"","20161211_163503.jpg","20161211_163515.jpg","","20161227_114300.jpg","20161227_114304.jpg","","vary"  ],
  ["Karlovarský","OC Varyáda","Hervis","sportovní vybavení","běžecké lyže",1899,1899,0,0,false,"","20161211_151700.jpg","20161211_151707.jpg","","20161227_191614.jpg","20161227_191533.jpg","","vary"  ],
  ["Karlovarský","OC Varyáda","Hervis","sportovní vybavení","běžecké lyže ATOMIC",2699,2699,0,0,false,"","20161211_151715.jpg","20161211_151720.jpg","","20161227_191447.jpg","20161227_191445.jpg","","vary"  ],
  ["Karlovarský","OC Varyáda","Hervis","sportovní vybavení","běžky SOLOMON",1999,1999,0,0,false,"","20161211_151809.jpg","20161211_151853.jpg","","20161227_191414.jpg","20161227_191416.jpg","","vary"  ],
  ["Karlovarský","OC Varyáda","Hervis","sportovní vybavení","helma Blizzard",999,999,0,0,false,"","20161211_152027.jpg","20161211_152032.jpg","","20161227_191345.jpg","20161227_191348.jpg","","vary"  ],
  ["Karlovarský","OC Varyáda","Hervis","sportovní vybavení","helma Cygnus",1699,1299,400,23.5,false,"","20161211_152043.jpg","20161211_152048.jpg","","20161227_191322.jpg","20161227_191319.jpg","","vary"  ],
  ["Karlovarský","OC Varyáda","Hervis","sportovní vybavení","helma DEMO-SKI",1699,1699,0,0,false,"","20161211_152108.jpg","20161211_152111.jpg","","20161227_191210.jpg","20161227_191208.jpg","","vary"  ],
  ["Karlovarský","OC Varyáda","Hervis","sportovní vybavení","brusle dámské Eve ICE",1799,1699,100,5.6,false,"","20161211_152236.jpg","20161211_152239.jpg","","20161227_190951.jpg","","","vary"  ],
  ["Karlovarský","OC Varyáda","Hervis","sportovní vybavení","brusle pánské Bauer",1999,1999,0,0,false,"","20161211_152317.jpg","20161211_152322.jpg","","20161227_191012.jpg","20161227_191015.jpg","","vary"  ],
  ["Karlovarský","OC Varyáda","Euronics","elektronika","plynový sporák MORA",5490,5490,0,0,false,"","20161211_153659.jpg","20161211_153704.jpg","","20161227_184551.jpg","20161227_184547.jpg","","vary"  ],
  ["Karlovarský","OC Varyáda","Euronics","elektronika","sporák Gorenje",10990,10990,0,0,false,"","20161211_153659.jpg","20161211_153659.jpg","","20161227_184505.jpg","20161227_184500.jpg","","vary"  ],
  ["Karlovarský","OC Varyáda","Euronics","elektronika","sporák Gorenje sklo",10990,10990,0,0,false,"","20161211_153905.jpg","20161211_153907.jpg","","20161227_184434.jpg","20161227_184430.jpg","","vary"  ],
  ["Karlovarský","OC Varyáda","Euronics","elektronika","chladnička Goddes",3399,3399,0,0,false,"zboží v prodeji zákazníkovi","20161211_154334.jpg","20161211_154338.jpg","","20161227_184349.jpg","20161227_184344.jpg","","vary"  ],
  ["Karlovarský","OC Varyáda","Euronics","elektronika","chladnička Elektrolux",8190,7490,700,8.5,false,"","20161211_154351.jpg","20161211_154355.jpg","","20161227_184225.jpg","20161227_184218.jpg","","vary"  ],
  ["Karlovarský","OC Varyáda","Euronics","elektronika","chladnička Gorenje",12990,12990,0,0,false,"","20161211_154427.jpg","20161211_154430.jpg","","20161227_184011.jpg","20161227_184029.jpg","","vary"  ],
  ["Karlovarský","OC Varyáda","Euronics","elektronika","fén Braun",1199,888,311,25.9,false,"","20161211_154747.jpg","20161211_154751.jpg","","20161227_183815.jpg","","","vary"  ],
  ["Karlovarský","OC Varyáda","Euronics","elektronika","fén Rowenta",1499,1349,150,10,false,"","20161211_154815.jpg","20161211_154810.jpg","","20161227_183730.jpg","","","vary"  ],
  ["Karlovarský","OC Varyáda","Euronics","elektronika","fén Compact",999,999,0,0,false,"","20161211_154856.jpg","20161211_154901.jpg","","20161227_183654.jpg","20161227_183629.jpg","","vary"  ],
  ["Karlovarský","OC Varyáda","Euronics","elektronika","TV Panasonic",16490,15990,500,3,false,"","20161211_155245.jpg","20161211_155252.jpg","","20161227_183327.jpg","","","vary"  ],
  ["Karlovarský","OC Varyáda","Euronics","elektronika","TV SOUNDBAR Phil",5297,5297,0,0,false,"","20161211_155301.jpg","20161211_155335.jpg","","20161227_183236.jpg","","","vary"  ],
  ["Karlovarský","OC Varyáda","Euronics","elektronika","TV LG",8990,8490,500,5.6,false,"","20161211_155352.jpg","20161211_155359.jpg","","20161227_183213.jpg","","","vary"  ],
  ["Karlovarský","OC Varyáda","Euronics","elektronika","Remoska R21",2790,2790,0,0,false,"","20161211_155635.jpg","20161211_155638.jpg","","20161227_183049.jpg","","","vary"  ],
  ["Karlovarský","OC Varyáda","Euronics","elektronika","Remoska Grand R22",2599,2890,-291,-11.2,false,"byla ve výprodeji, už není","20161211_155649.jpg","20161211_155653.jpg","","20161227_183016.jpg","","","vary"  ],
  ["Karlovarský","OC Varyáda","Euronics","elektronika","Pečící hrnec ETA",2699,2599,100,3.7,false,"","20161211_155738.jpg","20161211_155743.jpg","","20161227_183016.jpg","","","vary"  ],
  ["Karlovarský","OC Fontána","Humanic","oblečení","boty hnědé zimní",1599,1199,400,25,false,"","20161211_164729.jpg","20161211_164815.jpg","","20161227_122818.jpg","20161227_122822.jpg","","vary"  ],
  ["Jihočeský","České Budějovice","Electro World","elektronika","TV Panasonic",18490,16490,2000,10.8,false,"","IMG_0122.JPG","IMG_0121.JPG","IMG_0123.JPG","20161227_193144.jpg","20161227_193137.jpg","20161227_193207.jpg","budejovice"  ],
  ["Jihočeský","České Budějovice","Electro World","elektronika","TV LG",16999,16999,0,0,true,"chybně uvedená původní cena","IMG_0129.JPG","IMG_0130.JPG","","20161227_193219.jpg","20161227_193229.jpg","","budejovice"  ],
  ["Jihočeský","České Budějovice","Electro World","elektronika","holicí strojek Philips",3149,3149,0,0,false,"","IMG_0133.JPG","IMG_0135.JPG","IMG_0134.JPG","20161227_195930.jpg","20161227_195937.jpg","","budejovice"  ],
  ["Jihočeský","České Budějovice","Electro World","elektronika","holicí strojek Braun",3799,3799,0,0,false,"","IMG_0138.JPG","IMG_0140.JPG","IMG_0141.JPG","20161227_195851.jpg","20161227_195859.jpg","20161227_200035.jpg","budejovice"  ],
  ["Jihočeský","České Budějovice","Globus","elektronika","hrnec Lamart",2190,2190,0,0,false,"","IMG_0146.JPG","IMG_0147.JPG","IMG_0148.JPG","20161227_200817.jpg","20161227_200822.jpg","","budejovice"  ],
  ["Jihočeský","České Budějovice","Globus","elektronika","hrnec Adagio",2490,2490,0,0,false,"","IMG_0149.JPG","","","20161227_200856.jpg","20161227_200901.jpg","","budejovice"  ],
  ["Jihočeský","České Budějovice","Globus","elektronika","lednice Samsung",43490,43490,0,0,false,"","IMG_0156.JPG","IMG_0157.JPG","","20161227_193301.jpg","20161227_193307.jpg","","budejovice"  ],
  ["Jihočeský","České Budějovice","Globus","elektronika","lednice Liebherr",12999,12999,0,0,false,"","IMG_0162.JPG","IMG_0160.JPG","","20161227_193659.jpg","20161227_193706.jpg","","budejovice"  ],
  ["Jihočeský","České Budějovice","Globus","elektronika","lednice Gorenje",19990,19990,0,0,false,"","IMG_0163.JPG","IMG_0165.JPG","","20161227_193442.jpg","20161227_193448.jpg","","budejovice"  ],
  ["Jihočeský","České Budějovice","Globus","elektronika","lednice Samsung",17990,17490,500,2.8,false,"","IMG_0168.JPG","IMG_0169.JPG","","20161227_193345.jpg","20161227_193351.jpg","","budejovice"  ],
  ["Jihočeský","České Budějovice","H&M","oblečení","kabát černý 2",350,350,0,0,false,"","IMG_3332.JPG","IMG_3333.JPG","","IMG_3595.JPG","","","budejovice"  ],
  ["Jihočeský","České Budějovice","H&M","oblečení","čepice s ušima",200,200,0,0,false,"","IMG_3341.JPG","","","IMG_3597.JPG","","","budejovice"  ],
  ["Jihočeský","České Budějovice","H&M","oblečení","čepice bílá",70,70,0,0,false,"jiná barva","IMG_3343.JPG","IMG_3344.JPG","","IMG_3596.JPG","","","budejovice"  ],
  ["Jihočeský","České Budějovice","Sportisimo","sportovní oblečení","kalhoty Hannah",1799,1799,0,0,false,"","IMG_0201.JPG","IMG_0198.JPG","","20161227_194415.jpg","20161227_194420.jpg","","budejovice"  ],
  ["Jihočeský","České Budějovice","Sportisimo","sportovní oblečení","kalhoty Hannah zelené",3699,2599,1100,29.7,false,"","IMG_0202.JPG","IMG_0206.JPG","","20161227_194322.jpg","20161227_194338.jpg","","budejovice"  ],
  ["Jihočeský","České Budějovice","Sportisimo","sportovní oblečení","bunda Hannah",1999,1999,0,0,true,"chybně uvedená původní cena","IMG_0214.JPG","IMG_0216.JPG","","20161227_193953.jpg","20161227_194112.jpg","","budejovice"  ],
  ["Jihočeský","České Budějovice","Sportisimo","sportovní oblečení","bunda Columbia",3499,2999,500,14.3,true,"chybně uvedená původní cena","IMG_0261.JPG","IMG_0258.JPG","","20161227_194004.jpg","20161227_194150.jpg","","budejovice"  ],
  ["Jihočeský","České Budějovice","Sportisimo","sportovní vybavení","lyže Fischer",7499,6799,700,9.3,true,"chybně uvedená původní cena","IMG_0282.JPG","IMG_0283.JPG","","20161227_195255.jpg","20161227_195250.jpg","","budejovice"  ],
  ["Jihočeský","České Budějovice","Sportisimo","sportovní vybavení","lyže Rossignol růžové",6499,5499,1000,15.4,false,"","IMG_0294.JPG","IMG_0296.JPG","","20161227_195703.jpg","20161227_195658.jpg","","budejovice"  ],
  ["Jihočeský","České Budějovice","Sportisimo","sportovní vybavení","lyžáky Atomic",4499,4499,0,0,false,"","IMG_0299.JPG","","","20161227_194801.jpg","20161227_194806.jpg","","budejovice"  ],
  ["Jihočeský","České Budějovice","Sportisimo","sportovní vybavení","lyžáky Head",3499,2999,500,14.3,false,"","IMG_0305.JPG","","","20161227_194908.jpg","20161227_194911.jpg","","budejovice"  ],
  ["Jihočeský","České Budějovice","Sportisimo","sportovní vybavení","lyžáky Salomon pánské",3999,3999,0,0,false,"","IMG_0306.JPG","","","20161227_194942.jpg","20161227_194946.jpg","","budejovice"  ],
  ["Plzeňský","OC Olympia Černice","Electro World","elektronika","lednice Bosh",21990,21990,0,0,false,"zboží neoznačeno jako sleva - celý obchod nabízí až 50 pct slevy","20161209_133234.jpg","20161209_133246.jpg","","ledniceboschelektroworldolympiacernice.jpg","2ledniceboschelektroworldolympiacernice.jpg","","plzen"  ],
  ["Plzeňský","OC Olympia Černice","Electro World","elektronika","lednice Gorenje",11490,11490,0,0,false,"zboží neoznačeno jako sleva - celý obchod nabízí až 50 pct slevy","20161209_133310.jpg","20161209_133316.jpg","20161209_133322.jpg","lednicegorenjeelektroworldolympiacernice.jpg","2lednicegorenjeelektroworldolympiacernice.jpg","","plzen"  ],
  ["Plzeňský","OC Olympia Černice","Electro World","elektronika","lednice Samsung",31990,31990,0,0,false,"zboží neoznačeno jako sleva - celý obchod nabízí až 50 pct slevy","20161209_133328.jpg","20161209_133334.jpg","20161209_133352.jpg","lednicesamsungelektroworldolympiacernice.jpg","2lednicesamsungelektroworldolympiacenrice.jpg","","plzen"  ],
  ["Plzeňský","OC Olympia Černice","Electro World","elektronika","TV Philips",8888,8990,-102,-1.1,false,"zboží před i po označeno jako doporučujeme ale ne sleva","20161209_133908.jpg","20161209_133916.jpg","","tvphilipselektroworldolympaiacernice.jpg","2tvphilipselektroworldolympiacenrice.jpg","","plzen"  ],
  ["Plzeňský","OC Olympia Černice","Electro World","elektronika","TV Samsung",149990,149990,0,0,false,"zboží neoznačeno jako sleva - celý obchod nabízí až 50 pct slevy","20161209_134227.jpg","20161209_134232.jpg","","tvsamsungelektroworldolmypiacernice.jpg","2tvsamsungelektroworldolympiacernice.jpg","","plzen"  ],
  ["Plzeňský","OC Olympia Černice","Electro World","elektronika","fén Philips",1199,1199,0,0,false,"zboží neoznačeno jako sleva - celý obchod nabízí až 50 pct slevy","20161209_135255.jpg","20161209_135300.jpg","","fenphilipselektroworldolympiacernice.jpg","2fenphilipselektroworldolympiacernice.jpg","","plzen"  ],
  ["Plzeňský","OC Olympia Černice","Electro World","elektronika","fén Babyliss",990,990,0,0,false,"zboží neoznačeno jako sleva - celý obchod nabízí až 50 pct slevy","20161209_135402.jpg","20161209_135406.jpg","","fenbabylisselektroworlddolympiacernice.jpg","2fenbabylisselektrowordlolympaicernice.jpg","","plzen"  ],
  ["Plzeňský","OC Rokycanská","Okay","elektronika","hrnec Victoria",1999,1999,0,0,false,"celý obchod nabízí až 52 pct slevy - cenovky před a po se ale u sledovaného zboží neliší","20161209_155511.jpg","20161209_155520.jpg","","hrnecviktoriaokayrokycanska.jpg","2hrnecviktoraokayrokycanska.jpg","","plzen"  ],
  ["Plzeňský","OC Rokycanská","Okay","elektronika","hrnec Future",2499,2499,0,0,false,"celý obchod nabízí až 52 pct slevy - cenovky před a po se ale u sledovaného zboží neliší","20161209_155530.jpg","20161209_155533.jpg","20161209_155611.jpg","hrnecfuruteokayrokycanska.jpg","2hrnecfutureokayrokycanska.jpg","","plzen"  ],
  ["Plzeňský","OC Rokycanská","Okay","elektronika","hrnec Rapid",1499,1499,0,0,false,"celý obchod nabízí až 52 pct slevy - cenovky před a po se ale u sledovaného zboží neliší","20161209_155542.jpg","20161209_155549.jpg","20161209_155604.jpg","hrnecrapidokayrokycanska.jpg","2hrnecrapidokayrokycanska.jpg","","plzen"  ],
  ["Plzeňský","OC Rokycanská","Planeo","elektronika","hrnec Lamart",1699,1699,0,0,false,"obchod uvádí \"výprodej\" - ale jen u označeného zboží, sledované zboží není ve \"výprodeji\"","20161209_160133.jpg","20161209_160139.jpg","20161209_160211.jpg","hrneclamaprtplaneorokycnaka.jpg","2hrneclamartplanerorokycanska.jpg","","plzen"  ],
  ["Plzeňský","OC Olympia Černice","Reserved","oblečení","kabát šedý",1999,999,1000,50,false,"obchod nabízí až 50 pct slevy","20161209_131358.jpg","20161209_131411.jpg","20161209_131405.jpg","kabatsedyreserved olympiacernice.jpg","2kabatsedyreservedolympiacernice.jpg","","plzen"  ],
  ["Plzeňský","OC Olympia Černice","Reserved","oblečení","svetr bílý",599,199,400,66.8,false,"obchod nabízí až 50 pct sleva - sleva je větší","20161209_131735.jpg","20161209_131746.jpg","","bilysvetrreserved olympiacernice.jpg","2svetrbilyreservedolympiacernice.jpg","","plzen"  ],
  ["Plzeňský","OC Olympia Černice","Reserved","oblečení","svetr modrý",1199,499,700,58.4,false,"obchod nabízí až 50 pct sleva - sleva je větší","20161209_131918.jpg","20161209_131927.jpg","20161209_131913.jpg","svetrmodryreservedolympiacernice27122016.jpg","2svetrmodryreservedolympiacernice27122016.jpg","","plzen"  ],
  ["Plzeňský","OC Olympia Černice","Reserved","oblečení","šála šedá",399,249,150,37.6,false,"obchod nabízí až 50 pct slevy","20161209_132306.jpg","20161209_132311.jpg","20161209_132212.jpg","salasedareservedolympacernice.jpg","2salasedareservedolympacernice.jpg","","plzen"  ],
  ["Plzeňský","OC Olympia Černice","Reserved","oblečení","šála béžová",499,299,200,40.1,false,"obchod nabízí až 50 pct slevy","20161209_132426.jpg","20161209_132456.jpg","20161209_132522.jpg","salabezovaresevedolamypacernice.jpg","2salabezovareservedolampacernice.jpg","","plzen"  ],
  ["Plzeňský","OC Olympia Černice","Intersport","sportovní vybavení","lyžáky Atomic",8299,8299,0,0,false,"všeobecné upozornění na slevy - tohoto zboží se netýká","20161209_141434.jpg","20161209_141438.jpg","20161209_141428.jpg","lyzakyatomicinteresportcernice.jpg","2lyzakyatomocintersportcernice.jpg","","plzen"  ],
  ["Plzeňský","OC Olympia Černice","Intersport","sportovní vybavení","lyžáky Salomon",6299,6299,0,0,false,"všeobecné upozornění na slevy - tohoto zboží se netýká","20161209_141510.jpg","20161209_141521.jpg","20161209_141516.jpg","lyzakysalomoninteresportcernice.jpg","2lyzakysalomonintersportcernice.jpg","","plzen"  ],
  ["Plzeňský","OC Olympia Černice","Intersport","sportovní vybavení","lyžáky Rossignol",3099,2499,600,19.4,false,"všeobecné upozornění na slevy - slevněno","20161209_141707.jpg","20161209_141709.jpg","20161209_141718.jpg","lyzakyrossignolintersportcernice.jpg","2lyzakyrossingnolintersportcernice.jpg","","plzen"  ],
  ["Plzeňský","OC Olympia Černice","Intersport","sportovní vybavení","lyže Atomic",10599,10599,0,0,false,"všeobecné upozornění na slevy - tohoto zboží se netýká","20161209_141944.jpg","20161209_141950.jpg","20161209_141937.jpg","lyzeatomicintersportcernice.jpg","2lyzeatomicintersportcernice.jpg","","plzen"  ],
  ["Plzeňský","OC Olympia Černice","Intersport","sportovní vybavení","lyže Volkl",5999,5999,0,0,true,"chybně uvedená původní cena 8999 Kč","20161209_142011.jpg","20161209_142015.jpg","20161209_142102.jpg","lyzeesenzamotioninterrsportcernice.jpg","2lyzeesenzamotionintersportcernice.jpg","","plzen"  ],
  ["Plzeňský","OC Olympia Černice","Intersport","sportovní vybavení","lyže Tecnopro",4999,4699,300,6,true,"chybně uvedená původní cena 6999 Kč","20161209_142102.jpg","20161209_142104.jpg","20161209_142117.jpg","lyzetecnoprointersoertcernice.jpg","2lyzetecnoprointerspoertcernice.jpg","","plzen"  ],
  ["Plzeňský","OC Olympia Černice","Intersport","sportovní oblečení","bunda McKinley",4199,2499,1700,40.5,false,"všeobecné upozornění na slevy - slevněno","20161209_142414.jpg","20161209_142422.jpg","20161209_142408.jpg","lyzarskabundamckinleyinterrsportcernice.jpg","2lyzarskabundamckinleyintersportcernice.jpg","","plzen"  ],
  ["Plzeňský","OC Olympia Černice","Intersport","sportovní oblečení","lyžař. kalhoty McKinley",2299,2299,0,0,false,"všeobecné upozornění na slevy - tohoto zboží se netýká","20161209_142550.jpg","20161209_142532.jpg","","lyzarskekalhotymckinelyintersportcernice.jpg","2lyzarekskalhotymckinelyinterrsportcernice.jpg","","plzen"  ],
  ["Plzeňský","OC Olympia Černice","Intersport","sportovní oblečení","bunda Spyder",12499,12499,0,0,false,"všeobecné upozornění na slevy - sledovaného zboží se netýká","20161209_142735.jpg","20161209_142739.jpg","20161209_142815.jpg","bundaspiyderrinstersportcernice.jpg","2bundaspyderinterspoertcenirce.jpg","","plzen"  ],
  ["Plzeňský","OC Olympia Černice","Intersport","sportovní oblečení","lyž. kalhoty Spyder",8999,6499,2500,27.8,false,"všeobecné upozornění na slevy - toto slevněno","20161209_142804.jpg","20161209_142745.jpg","20161209_142821.jpg","lyzarskekalhotyspyderintersportcernice.jpg","2lyzarskekalhotyspiyderintersportcernice.jpg","","plzen"  ],
  ["Plzeňský","OC Olympia Černice","Intersport","sportovní oblečení","bunda Icepeak",4199,4199,0,0,false,"všeobecné upozornění na slevy - netýká se tohoto zboží","20161209_143054.jpg","20161209_143114.jpg","20161209_143049.jpg","bundaicepeakinteresportcernice.jpg","2bundaicepeakkintersportcenirnice.jpg","","plzen"  ],
  ["Plzeňský","OC Olympia Černice","Intersport","sportovní oblečení","lyž. kalhoty Icepeak",2799,2799,0,0,false,"všeobecné upozornění na slevy - netýká se tohoto zboží","20161209_143121.jpg","20161209_143138.jpg","","lyzarskekalhotyicepeakinterespotcernice.jpg","2lyzarskekalhotyicepeakintersportcenrice.jpg","","plzen"  ],
  ["Středočeský kraj","OC Central Kladno","Euronics","elektronika","lednička Samsung",19990,19990,0,0,false,"","20161212_121135.jpg","20161212_121142.jpg","","20161227_102530.jpg","20161227_102550.jpg","","stc"  ],
  ["Středočeský kraj","OC Central Kladno","Euronics","elektronika","lednička LG",19990,19990,0,0,false,"","20161212_121151.jpg","20161212_121207.jpg","","20161227_102631.jpg","20161227_102602.jpg","","stc"  ],
  ["Středočeský kraj","OC Central Kladno","Euronics","elektronika","lednička Electrol",10990,10990,0,0,false,"","20161212_121221.jpg","20161212_121226.jpg","","20161227_102732.jpg","20161227_102738.jpg","","stc"  ],
  ["Středočeský kraj","OC Central Kladno","Euronics","elektronika","televize Samsung",17989,17491,498,2.8,false,"","20161212_121254.jpg","20161212_121350.jpg","","20161227_103627.jpg","20161227_103611.jpg","","stc"  ],
  ["Středočeský kraj","OC Central Kladno","Euronics","elektronika","televize LG",10490,9990,500,4.8,false,"","20161212_121415.jpg","20161212_121503.jpg","","20161227_104752.jpg","20161227_104334.jpg","","stc"  ],
  ["Středočeský kraj","OC Central Kladno","Euronics","elektronika","televize GoGEN",4999,4999,0,0,false,"","20161212_121525.jpg","20161212_121532.jpg","","20161227_104701.jpg","20161227_104706.jpg","","stc"  ],
  ["Středočeský kraj","OC Central Kladno","Euronics","elektronika","fén Braun",1499,1349,150,10,false,"","20161212_122137.jpg","20161212_122143.jpg","","20161227_104952.jpg","20161227_104948.jpg","","stc"  ],
  ["Středočeský kraj","OC Central Kladno","Euronics","elektronika","fén Philips",1199,845,354,29.5,false,"","20161212_122153.jpg","20161212_122207.jpg","","20161227_105008.jpg","20161227_105001.jpg","","stc"  ],
  ["Středočeský kraj","OC Central Kladno","Euronics","elektronika","fén Roventa",1999,1799,200,10,false,"","20161212_122215.jpg","20161212_122225.jpg","","20161227_105114.jpg","20161227_105108.jpg","","stc"  ],
  ["Středočeský kraj","OC Central Kladno","New Yorker","oblečení","bunda PV sister",1400,549,851,60.8,false,"jiná barva","20161212_123256.jpg","20161212_123304.jpg","","20161227_111607.jpg","20161227_111624.jpg","","stc"  ],
  ["Středočeský kraj","OC Central Kladno","New Yorker","oblečení","bunda s kožíškem",1650,1650,0,0,false,"","20161212_123318.jpg","20161212_123328.jpg","","20161227_110114.jpg","20161227_110131.jpg","","stc"  ],
  ["Středočeský kraj","OC Central Kladno","New Yorker","oblečení","bunda Amisu",2200,2200,0,0,false,"","20161212_123440.jpg","20161212_123453.jpg","","20161227_110955.jpg","20161227_111002.jpg","","stc"  ],
  ["Středočeský kraj","OC Central Kladno","New Yorker","oblečení","stvetr Amisu",499,499,0,0,false,"","20161212_123523.jpg","20161212_123545.jpg","","20161227_105919.jpg","20161227_105925.jpg","","stc"  ],
  ["Středočeský kraj","OC Central Kladno","New Yorker","oblečení","svetr pruhovaný Amisu",349,299,50,14.3,false,"","20161212_123712.jpg","20161212_123718.jpg","","20161227_110837.jpg","20161227_110843.jpg","","stc"  ],
  ["Středočeský kraj","OC Central Kladno","New Yorker","oblečení","šály huňaté",139,139,0,0,false,"","20161212_123953.jpg","20161212_123959.jpg","","20161227_110559.jpg","20161227_110615.jpg","","stc"  ],
  ["Středočeský kraj","OC Central Kladno","New Yorker","oblečení","šály hladké",299,299,0,0,false,"","20161212_124010.jpg","20161212_124019.jpg","","20161227_110521.jpg","20161227_110529.jpg","","stc"  ],
  ["Středočeský kraj","OC Central Kladno","New Yorker","oblečení","šály s třásněmi",219,219,0,0,false,"","20161212_124049.jpg","20161212_124056.jpg","","20161227_110659.jpg","20161227_110705.jpg","","stc"  ],
  ["Středočeský kraj","OC Central Kladno","Sportisimo","sportovní vybavení","lyže Solomon",9999,8999,1000,10,false,"","20161212_124537.jpg","20161212_124544.jpg","","20161227_113646.jpg","20161227_113734.jpg","20161227_113651.jpg","stc"  ],
  ["Středočeský kraj","OC Central Kladno","Sportisimo","sportovní vybavení","lyže Head",4499,4499,0,0,false,"","20161212_124555.jpg","20161212_124602.jpg","","20161227_113746.jpg","20161227_113740.jpg","","stc"  ],
  ["Středočeský kraj","OC Central Kladno","Sportisimo","sportovní vybavení","lyže Blizzard",5499,5499,0,0,false,"","20161212_124613.jpg","20161212_124618.jpg","","20161227_113835.jpg","20161227_113828.jpg","20161227_113839.jpg","stc"  ],
  ["Středočeský kraj","OC Central Kladno","Sportisimo","sportovní vybavení","lyžařské boty Head",3499,2999,500,14.3,false,"","20161212_124716.jpg","20161212_124724.jpg","","20161227_130508.jpg","20161227_130501.jpg","","stc"  ],
  ["Středočeský kraj","OC Central Kladno","Sportisimo","sportovní vybavení","lyžařské boty Atomic",4499,4499,0,0,false,"","20161212_124732.jpg","20161212_124738.jpg","","20161227_113504.jpg","20161227_113456.jpg","","stc"  ],
  ["Středočeský kraj","OC Central Kladno","Sportisimo","sportovní vybavení","lyžsřské boty Nordica",5999,4999,1000,16.7,false,"","20161212_124747.jpg","20161212_124753.jpg","","20161227_113600.jpg","20161227_113543.jpg","","stc"  ],
  ["Středočeský kraj","OC Central Kladno","Sportisimo","sportovní oblečení","bunda Onell",2999,2999,0,0,false,"","20161212_125013.jpg","20161212_125019.jpg","","20161227_114040.jpg","20161227_114029.jpg","","stc"  ],
  ["Středočeský kraj","OC Central Kladno","Sportisimo","sportovní oblečení","bunda Columbia",1899,1899,0,0,false,"","20161212_125100.jpg","20161212_125108.jpg","","20161227_114126.jpg","20161227_114113.jpg","","stc"  ],
  ["Středočeský kraj","OC Central Kladno","Sportisimo","sportovní oblečení","bunda Head",1099,1099,0,0,false,"","20161212_125125.jpg","20161212_125132.jpg","","20161227_114332.jpg","20161227_114312.jpg","","stc"  ],
  ["Středočeský kraj","OC Central Kladno","Sportisimo","sportovní oblečení","kalhoty Onell černé",2199,2190,9,0.4,false,"","20161212_125214.jpg","20161212_125229.jpg","","20161227_114531.jpg","20161227_114522.jpg","","stc"  ],
  ["Středočeský kraj","OC Central Kladno","Sportisimo","sportovní oblečení","kalhoty Onell červené",1499,1299,200,13.3,false,"","20161212_125319.jpg","20161212_125331.jpg","","20161227_114821.jpg","20161227_114821.jpg","","stc"  ],
  ["Středočeský kraj","OC Central Kladno","Sportisimo","sportovní oblečení","kalhoty Onell modré",1499,1199,300,20,false,"","20161212_125357.jpg","20161212_125406.jpg","","20161227_114954.jpg","20161227_114944.jpg","","stc"  ],
  ["Středočeský kraj","OC Central Kladno","Tescoma","elektronika","papiňák President duo",3999,3999,0,0,false,"","20161212_130748.jpg","20161212_130753.jpg","","20161227_130801.jpg","20161227_130757.jpg","","stc"  ],
  ["Středočeský kraj","OC Central Kladno","Tescoma","elektronika","papiňák Magnum 3,5 l",1099,1099,0,0,false,"","20161212_130759.jpg","20161212_130807.jpg","","20161227_115658.jpg","20161227_115704.jpg","","stc"  ],
  ["Středočeský kraj","OC Central Kladno","Tescoma","elektronika","papiňák Presto 4 l",1699,1699,0,0,false,"","20161212_130813.jpg","20161212_130817.jpg","","20161227_130808.jpg","20161227_130813.jpg","","stc"  ],
  ["Praha","OC Arkády","Sportisimo","sportovní oblečení","bunda Hannah",3299,2299,1000,30.3,false,"","IMG_1363.JPG","IMG_1364.JPG","","IMG_1585.JPG","IMG_1586.JPG","","praha"  ],
  ["Praha","OC Arkády","Sportisimo","sportovní oblečení","kabát Loap",2499,1899,600,24,false,"","IMG_1367.JPG","IMG_1368.JPG","","IMG_1583.JPG","IMG_1584.JPG","","praha"  ],
  ["Praha","OC Arkády","Sportisimo","sportovní oblečení","bunda Hannah černá",2999,2399,600,20,false,"","IMG_1371.JPG","IMG_1372.JPG","","IMG_1587.JPG","IMG_1588.JPG","","praha"  ],
  ["Praha","OC Arkády","Sportisimo","sportovní oblečení","kabát Loap bílý",2599,1949,650,25,false,"","IMG_1369.JPG","IMG_1370.JPG","","IMG_1581.JPG","IMG_1582.JPG","","praha"  ],
  ["Praha","OC Arkády","Sportisimo","sportovní oblečení","lyžařské kalhoty Hannah modré",1799,1799,0,0,false,"","IMG_1373.JPG","IMG_1374.JPG","","IMG_1589.JPG","IMG_1590.JPG","","praha"  ],
  ["Praha","OC Arkády","Sportisimo","sportovní vybavení","lyže Head",7499,7499,0,0,false,"","IMG_1377.JPG","IMG_1378.JPG","","IMG_1591.JPG","IMG_1592.JPG","","praha"  ],
  ["Praha","OC Arkády","Sportisimo","sportovní vybavení","lyže Blizzard",5499,5499,0,0,false,"","IMG_1380.JPG","IMG_1381.JPG","","IMG_1595.JPG","","","praha"  ],
  ["Praha","OC Arkády","Sportisimo","sportovní vybavení","lyže Rossignol",4999,4999,0,0,false,"","IMG_1383.JPG","IMG_1384.JPG","","IMG_1596.JPG","IMG_1597.JPG","","praha"  ],
  ["Praha","OC Arkády","Sportisimo","sportovní vybavení","lyžáky Salomon",4999,4999,0,0,false,"","IMG_1386.JPG","IMG_1387.JPG","","IMG_1598.JPG","","","praha"  ],
  ["Praha","OC Arkády","Sportisimo","sportovní vybavení","lyžáky Rossignol",4999,4999,0,0,false,"","IMG_1388.JPG","IMG_1389.JPG","","IMG_1599.JPG","","","praha"  ],
  ["Praha","OC Arkády","Sportisimo","sportovní vybavení","lyžáky Atomic",4199,4199,0,0,false,"","IMG_1390.JPG","IMG_1391.JPG","","IMG_1600.JPG","","","praha"  ],
  ["Praha","OC Arkády","Datart","elektronika","lednice Samsung",15990,15990,0,0,false,"","IMG_1392.JPG","IMG_1393.JPG","","IMG_1603.JPG","IMG_1604.JPG","IMG_1600.JPG","praha"  ],
  ["Praha","OC Arkády","Datart","elektronika","lednice LG",19490,19490,0,0,false,"","IMG_1394.JPG","IMG_1396.JPG","","IMG_1607.JPG","IMG_1608.JPG","IMG_1648.JPG","praha"  ],
  ["Praha","OC Arkády","Datart","elektronika","lednice Whirpool",11090,12490,-1400,-12.6,false,"cena vyšší o 1400 Kč","IMG_1397.JPG","IMG_1398.JPG","","IMG_1609.JPG","IMG_1610.JPG","","praha"  ],
  ["Praha","OC Arkády","Datart","elektronika","lednice Electrolux",8490,8490,0,0,false,"","IMG_1399.JPG","IMG_1400.JPG","","IMG_1611.JPG","","","praha"  ],
  ["Praha","OC Arkády","Datart","elektronika","TV Panasonic",21988,18789,3199,14.5,false,"","IMG_1403.JPG","IMG_1404.JPG","","IMG_1612.JPG","IMG_1613.JPG","","praha"  ],
  ["Praha","OC Arkády","Datart","elektronika","TV Samsung",23990,21990,2000,8.3,false,"","IMG_1410.JPG","IMG_1411.JPG","","IMG_1621.JPG","IMG_1622.JPG","","praha"  ],
  ["Praha","OC Arkády","Datart","elektronika","mixér Rohnson",762,799,-37,-4.9,false," cena vyšší o 37 Kč","IMG_1415.JPG","IMG_1416.JPG","","IMG_1623.JPG","IMG_1624.JPG","","praha"  ],
  ["Praha","OC Arkády","Datart","elektronika","mixér Tefal",1699,1699,0,0,false,"","IMG_1417.JPG","IMG_1418.JPG","","IMG_1625.JPG","IMG_1626.JPG","","praha"  ],
  ["Praha","OC Arkády","Datart","elektronika","žehlička Tefal",1499,1499,0,0,false,"","IMG_1419.JPG","IMG_1420.JPG","","IMG_1629.JPG","IMG_1630.JPG","","praha"  ],
  ["Praha","OC Arkády","Datart","elektronika","žehlička Electrolux",1199,1059,140,11.7,false,"","IMG_1421.JPG","IMG_1422.JPG","","IMG_1631.JPG","IMG_1632.JPG","","praha"  ],
  ["Praha","OC Arkády","Datart","elektronika","žehlička Braun",1699,1390,309,18.2,false,"","IMG_1423.JPG","IMG_1424.JPG","","IMG_1632.JPG","","","praha"  ],
  ["Praha","OC Arkády","Reserved","oblečení","kabát žlutý",1999,1999,0,0,false,"","IMG_1425.JPG","IMG_1426.JPG","","IMG_1641.JPG","IMG_1643.JPG","IMG_1640.JPG","praha"  ],
  ["Praha","OC Arkády","Reserved","oblečení","kabát šedivý",2299,999,1300,56.5,false,"","IMG_1427.JPG","IMG_1428.JPG","","IMG_1644.JPG","IMG_1645.JPG","IMG_1634.JPG","praha"  ],
  ["Praha","OC Arkády","Reserved","oblečení","svetr",799,499,300,37.5,false,"","IMG_1429.JPG","IMG_1430.JPG","","IMG_1635.JPG","IMG_1636.JPG","IMG_1650.JPG","praha"  ],
  ["Praha","OC Arkády","Reserved","oblečení","boty černé",999,699,300,30,false,"","IMG_1432.JPG","IMG_1434.JPG","","IMG_1638.JPG","IMG_1637.JPG","IMG_1639.JPG","praha"  ]
]